<svg width="20" height="15" viewBox="0 0 20 15" fill="none" xmlns="http://www.w3.org/2000/svg">
<path d="M19.6124 2.2359C19.624 1.8906 19.5235 1.55083 19.3259 1.26739C19.1284 0.983943 18.8444 0.772045 18.5164 0.663372C18.1885 0.554699 17.8342 0.555088 17.5065 0.66448C17.1787 0.773873 16.8952 0.986394 16.6983 1.27027L9.99988 10.6484L3.30145 1.27027C3.18213 1.0926 3.02837 0.940676 2.84929 0.823482C2.67021 0.706288 2.46944 0.626209 2.25886 0.587984C2.04828 0.549759 1.83218 0.554166 1.62333 0.600942C1.41449 0.647719 1.21715 0.735915 1.04299 0.860311C0.868839 0.984707 0.721409 1.14278 0.609426 1.32516C0.497444 1.50755 0.423187 1.71054 0.39105 1.92214C0.358913 2.13373 0.369549 2.34962 0.422327 2.55703C0.475107 2.76444 0.568956 2.95915 0.698322 3.12965L8.69832 14.3296C8.84639 14.5367 9.04172 14.7054 9.26809 14.8218C9.49446 14.9383 9.74534 14.999 9.99988 14.999C10.2544 14.999 10.5053 14.9383 10.7317 14.8218C10.958 14.7054 11.1534 14.5367 11.3014 14.3296L19.3014 3.12965C19.4928 2.86989 19.6012 2.55835 19.6124 2.2359Z" fill="#092725"/>
</svg>
