<svg width="612" height="314" viewBox="0 0 612 314" fill="none" xmlns="http://www.w3.org/2000/svg">
<circle cx="304.805" cy="33.352" r="32.3051" stroke="#092725"/>
<path d="M336.706 29.1367H609C610.105 29.1367 611 30.0321 611 31.1367V310.547C611 311.651 610.105 312.547 609 312.547H2.99999C1.89542 312.547 1 311.651 1 310.547V31.1367C1 30.0321 1.89543 29.1367 3 29.1367H273.101" stroke="#092725"/>
<path d="M70.2297 109.539H79.9737V123.867H81.7977V128.907H80.1177V125.547H68.7897V128.907H67.1097V123.867C67.6537 123.883 68.1497 123.691 68.5977 123.291C69.0457 122.875 69.3977 122.347 69.6537 121.707C70.0377 120.731 70.2297 119.331 70.2297 117.507V109.539ZM72.0057 111.219V117.507C72.0057 119.475 71.8137 120.963 71.4297 121.971C71.1577 122.691 70.7497 123.323 70.2057 123.867H78.1977V111.219H72.0057ZM92.1813 124.347C91.1893 125.339 89.9333 125.835 88.4133 125.835C86.8933 125.835 85.6293 125.339 84.6213 124.347C83.6293 123.355 83.1333 122.107 83.1333 120.603C83.1333 119.083 83.6293 117.827 84.6213 116.835C85.6293 115.843 86.8933 115.347 88.4133 115.347C89.9333 115.347 91.1893 115.843 92.1813 116.835C93.1893 117.827 93.6933 119.083 93.6933 120.603C93.6933 122.107 93.1893 123.355 92.1813 124.347ZM90.8853 117.867C90.2133 117.211 89.3893 116.883 88.4133 116.883C87.4373 116.883 86.6053 117.219 85.9173 117.891C85.2453 118.547 84.9093 119.451 84.9093 120.603C84.9093 121.755 85.2533 122.659 85.9413 123.315C86.6293 123.971 87.4533 124.299 88.4133 124.299C89.3733 124.299 90.1973 123.971 90.8853 123.315C91.5733 122.659 91.9173 121.755 91.9173 120.603C91.9173 119.435 91.5733 118.523 90.8853 117.867ZM98.0712 124.155V131.067H96.3432V115.587H98.0712V116.979C98.9512 115.891 100.087 115.347 101.479 115.347C102.967 115.347 104.143 115.875 105.007 116.931C105.887 117.971 106.327 119.203 106.327 120.627C106.327 122.067 105.895 123.299 105.031 124.323C104.167 125.331 103.007 125.835 101.551 125.835C100.095 125.835 98.9352 125.275 98.0712 124.155ZM101.311 124.299C102.287 124.299 103.071 123.947 103.663 123.243C104.255 122.523 104.551 121.651 104.551 120.627C104.551 119.475 104.223 118.563 103.567 117.891C102.911 117.219 102.151 116.883 101.287 116.883C100.423 116.883 99.6552 117.219 98.9832 117.891C98.3112 118.563 97.9752 119.467 97.9752 120.603C97.9752 121.643 98.2792 122.523 98.8872 123.243C99.5112 123.947 100.319 124.299 101.311 124.299ZM117.4 124.347C116.408 125.339 115.152 125.835 113.632 125.835C112.112 125.835 110.848 125.339 109.84 124.347C108.848 123.355 108.352 122.107 108.352 120.603C108.352 119.083 108.848 117.827 109.84 116.835C110.848 115.843 112.112 115.347 113.632 115.347C115.152 115.347 116.408 115.843 117.4 116.835C118.408 117.827 118.912 119.083 118.912 120.603C118.912 122.107 118.408 123.355 117.4 124.347ZM116.104 117.867C115.432 117.211 114.608 116.883 113.632 116.883C112.656 116.883 111.824 117.219 111.136 117.891C110.464 118.547 110.128 119.451 110.128 120.603C110.128 121.755 110.472 122.659 111.16 123.315C111.848 123.971 112.672 124.299 113.632 124.299C114.592 124.299 115.416 123.971 116.104 123.315C116.792 122.659 117.136 121.755 117.136 120.603C117.136 119.435 116.792 118.523 116.104 117.867ZM121.562 125.547V115.587H127.466V117.171H123.29V125.547H121.562ZM129.203 115.587H130.931V122.163L137.747 114.819V125.547H136.019V118.899L129.203 126.243V115.587ZM148.407 122.211L149.847 123.003C149.511 123.643 149.103 124.179 148.623 124.611C147.711 125.427 146.607 125.835 145.311 125.835C143.967 125.835 142.807 125.403 141.831 124.539C140.871 123.659 140.391 122.355 140.391 120.627C140.391 119.107 140.823 117.851 141.687 116.859C142.567 115.851 143.743 115.347 145.215 115.347C146.879 115.347 148.135 115.955 148.983 117.171C149.655 118.131 149.967 119.379 149.919 120.915H142.167C142.183 121.923 142.495 122.739 143.103 123.363C143.711 123.987 144.455 124.299 145.335 124.299C146.119 124.299 146.799 124.059 147.375 123.579C147.823 123.195 148.167 122.739 148.407 122.211ZM142.287 119.475H148.143C147.999 118.691 147.655 118.067 147.111 117.603C146.583 117.123 145.951 116.883 145.215 116.883C144.495 116.883 143.855 117.131 143.295 117.627C142.751 118.107 142.415 118.723 142.287 119.475ZM158.891 115.587H165.899V123.963H167.387V128.187H165.803V125.547H158.219V128.187H156.635V123.963C157.467 123.947 158.083 123.515 158.483 122.667C158.755 122.107 158.891 121.227 158.891 120.027V115.587ZM164.171 123.963V117.171H160.619V120.915C160.619 122.243 160.219 123.259 159.419 123.963H164.171ZM170.938 124.155V131.067H169.21V115.587H170.938V116.979C171.818 115.891 172.954 115.347 174.346 115.347C175.834 115.347 177.01 115.875 177.874 116.931C178.754 117.971 179.194 119.203 179.194 120.627C179.194 122.067 178.762 123.299 177.898 124.323C177.034 125.331 175.874 125.835 174.418 125.835C172.962 125.835 171.802 125.275 170.938 124.155ZM174.178 124.299C175.154 124.299 175.938 123.947 176.53 123.243C177.122 122.523 177.418 121.651 177.418 120.627C177.418 119.475 177.09 118.563 176.434 117.891C175.778 117.219 175.018 116.883 174.154 116.883C173.29 116.883 172.522 117.219 171.85 117.891C171.178 118.563 170.842 119.467 170.842 120.603C170.842 121.643 171.146 122.523 171.754 123.243C172.378 123.947 173.186 124.299 174.178 124.299ZM181.819 131.067L184.987 124.611L180.403 115.587H182.371L185.899 122.715L189.139 115.587H191.059L183.739 131.067H181.819ZM193.71 118.131L192.51 117.147C192.894 116.587 193.318 116.171 193.782 115.899C194.406 115.531 195.134 115.347 195.966 115.347C196.974 115.347 197.758 115.579 198.318 116.043C198.894 116.539 199.182 117.171 199.182 117.939C199.182 118.867 198.806 119.563 198.054 120.027C198.534 120.139 198.918 120.355 199.206 120.675C199.67 121.171 199.902 121.779 199.902 122.499C199.902 123.571 199.47 124.427 198.606 125.067C197.902 125.579 196.958 125.835 195.774 125.835C194.718 125.835 193.83 125.555 193.11 124.995C192.566 124.595 192.126 124.027 191.79 123.291L193.278 122.667C193.454 123.115 193.75 123.491 194.166 123.795C194.614 124.131 195.158 124.299 195.798 124.299C196.55 124.299 197.11 124.171 197.478 123.915C197.942 123.611 198.174 123.147 198.174 122.523C198.174 122.011 197.974 121.627 197.574 121.371C197.238 121.147 196.694 121.035 195.942 121.035H194.934V119.451H195.774C196.382 119.451 196.814 119.363 197.07 119.187C197.422 118.963 197.598 118.659 197.598 118.275C197.598 117.827 197.454 117.483 197.166 117.243C196.894 117.003 196.47 116.883 195.894 116.883C195.398 116.883 194.942 117.011 194.526 117.267C194.174 117.491 193.902 117.779 193.71 118.131ZM202.539 125.547V115.587H204.267V119.403H206.043C207.419 119.403 208.427 119.731 209.067 120.387C209.579 120.899 209.835 121.595 209.835 122.475C209.835 123.403 209.539 124.147 208.947 124.707C208.355 125.267 207.379 125.547 206.019 125.547H202.539ZM204.267 124.011H205.875C206.595 124.011 207.107 123.923 207.411 123.747C207.843 123.459 208.059 123.035 208.059 122.475C208.059 121.899 207.851 121.483 207.435 121.227C207.147 121.035 206.635 120.939 205.899 120.939H204.267V124.011ZM210.996 125.547L214.092 121.443C213.996 121.443 213.86 121.427 213.684 121.395C213.524 121.363 213.284 121.283 212.964 121.155C212.644 121.027 212.38 120.859 212.172 120.651C211.644 120.155 211.38 119.491 211.38 118.659C211.38 117.715 211.676 116.971 212.268 116.427C212.86 115.867 213.836 115.587 215.196 115.587H218.676V125.547H216.948V121.539H215.892L213.06 125.547H210.996ZM216.948 120.099V117.123H215.34C214.588 117.123 214.068 117.211 213.78 117.387C213.364 117.659 213.156 118.067 213.156 118.611C213.156 119.155 213.364 119.555 213.78 119.811C214.084 120.003 214.596 120.099 215.316 120.099H216.948ZM220.889 128.739L222.857 123.195L224.441 123.771L222.017 129.195L220.889 128.739ZM241.524 122.211L242.964 123.003C242.628 123.643 242.22 124.179 241.74 124.611C240.828 125.427 239.724 125.835 238.428 125.835C237.084 125.835 235.924 125.403 234.948 124.539C233.988 123.659 233.508 122.355 233.508 120.627C233.508 119.107 233.94 117.851 234.804 116.859C235.684 115.851 236.86 115.347 238.332 115.347C239.996 115.347 241.252 115.955 242.1 117.171C242.772 118.131 243.084 119.379 243.036 120.915H235.284C235.3 121.923 235.612 122.739 236.22 123.363C236.828 123.987 237.572 124.299 238.452 124.299C239.236 124.299 239.916 124.059 240.492 123.579C240.94 123.195 241.284 122.739 241.524 122.211ZM235.404 119.475H241.26C241.116 118.691 240.772 118.067 240.228 117.603C239.7 117.123 239.068 116.883 238.332 116.883C237.612 116.883 236.972 117.131 236.412 117.627C235.868 118.107 235.532 118.723 235.404 119.475ZM253.487 116.307V118.371C252.703 117.379 251.663 116.883 250.367 116.883C249.391 116.883 248.559 117.219 247.871 117.891C247.183 118.547 246.839 119.451 246.839 120.603C246.839 121.755 247.183 122.659 247.871 123.315C248.559 123.971 249.383 124.299 250.343 124.299C251.623 124.299 252.695 123.779 253.559 122.739V124.803C252.615 125.491 251.559 125.835 250.391 125.835C248.839 125.835 247.559 125.347 246.551 124.371C245.559 123.379 245.063 122.131 245.063 120.627C245.063 119.107 245.567 117.851 246.575 116.859C247.583 115.851 248.855 115.347 250.391 115.347C251.543 115.347 252.575 115.667 253.487 116.307ZM263.746 115.587V125.547H262.018V117.171H258.466V121.659C258.466 122.955 258.21 123.915 257.698 124.539C257.122 125.243 256.322 125.595 255.298 125.595C255.17 125.595 254.994 125.579 254.77 125.547V123.963C254.93 123.995 255.058 124.011 255.154 124.011C255.714 124.011 256.13 123.795 256.402 123.363C256.626 123.011 256.738 122.443 256.738 121.659V115.587H263.746ZM267.015 115.587H268.743V122.163L275.559 114.819V125.547H273.831V118.899L267.015 126.243V115.587ZM284.429 115.587H288.197C289.109 115.587 289.805 115.779 290.285 116.163C290.861 116.627 291.149 117.251 291.149 118.035C291.149 118.899 290.789 119.563 290.069 120.027C290.565 120.155 290.981 120.379 291.317 120.699C291.845 121.211 292.109 121.851 292.109 122.619C292.109 123.579 291.765 124.331 291.077 124.875C290.485 125.323 289.701 125.547 288.725 125.547H284.429V115.587ZM286.157 119.643H287.981C288.445 119.643 288.813 119.547 289.085 119.355C289.405 119.115 289.565 118.771 289.565 118.323C289.565 117.923 289.405 117.603 289.085 117.363C288.845 117.203 288.381 117.123 287.693 117.123H286.157V119.643ZM286.157 124.011H288.293C289.029 124.011 289.549 123.899 289.853 123.675C290.237 123.387 290.429 123.019 290.429 122.571C290.429 122.091 290.261 121.715 289.925 121.443C289.621 121.203 289.101 121.083 288.365 121.083H286.157V124.011ZM294.742 125.547V115.587H296.47V119.403H298.246C299.622 119.403 300.63 119.731 301.27 120.387C301.782 120.899 302.038 121.595 302.038 122.475C302.038 123.403 301.742 124.147 301.15 124.707C300.558 125.267 299.582 125.547 298.222 125.547H294.742ZM296.47 124.011H298.078C298.798 124.011 299.31 123.923 299.614 123.747C300.046 123.459 300.262 123.035 300.262 122.475C300.262 121.899 300.054 121.483 299.638 121.227C299.35 121.035 298.838 120.939 298.102 120.939H296.47V124.011ZM303.238 125.547V115.587H304.966V125.547H303.238ZM315.116 118.131L313.916 117.147C314.3 116.587 314.724 116.171 315.188 115.899C315.812 115.531 316.54 115.347 317.372 115.347C318.38 115.347 319.164 115.579 319.724 116.043C320.3 116.539 320.588 117.171 320.588 117.939C320.588 118.867 320.212 119.563 319.46 120.027C319.94 120.139 320.324 120.355 320.612 120.675C321.076 121.171 321.308 121.779 321.308 122.499C321.308 123.571 320.876 124.427 320.012 125.067C319.308 125.579 318.364 125.835 317.18 125.835C316.124 125.835 315.236 125.555 314.516 124.995C313.972 124.595 313.532 124.027 313.196 123.291L314.684 122.667C314.86 123.115 315.156 123.491 315.572 123.795C316.02 124.131 316.564 124.299 317.204 124.299C317.956 124.299 318.516 124.171 318.884 123.915C319.348 123.611 319.58 123.147 319.58 122.523C319.58 122.011 319.38 121.627 318.98 121.371C318.644 121.147 318.1 121.035 317.348 121.035H316.34V119.451H317.18C317.788 119.451 318.22 119.363 318.476 119.187C318.828 118.963 319.004 118.659 319.004 118.275C319.004 117.827 318.86 117.483 318.572 117.243C318.3 117.003 317.876 116.883 317.3 116.883C316.804 116.883 316.348 117.011 315.932 117.267C315.58 117.491 315.308 117.779 315.116 118.131ZM331.577 117.003V115.587H333.305V125.547H331.577V124.155C330.713 125.275 329.577 125.835 328.169 125.835C326.825 125.835 325.681 125.371 324.737 124.443C323.793 123.515 323.321 122.219 323.321 120.555C323.321 118.923 323.785 117.651 324.713 116.739C325.657 115.811 326.809 115.347 328.169 115.347C329.609 115.347 330.745 115.899 331.577 117.003ZM328.361 116.883C327.449 116.883 326.673 117.211 326.033 117.867C325.409 118.507 325.097 119.403 325.097 120.555C325.097 121.659 325.385 122.563 325.961 123.267C326.553 123.955 327.353 124.299 328.361 124.299C329.369 124.299 330.169 123.939 330.761 123.219C331.369 122.499 331.673 121.619 331.673 120.579C331.673 119.395 331.337 118.483 330.665 117.843C329.993 117.203 329.225 116.883 328.361 116.883ZM343.106 117.171H339.986V125.547H338.258V117.171H335.138V115.587H343.106V117.171ZM346.649 124.155V131.067H344.921V115.587H346.649V116.979C347.529 115.891 348.665 115.347 350.057 115.347C351.545 115.347 352.721 115.875 353.585 116.931C354.465 117.971 354.905 119.203 354.905 120.627C354.905 122.067 354.473 123.299 353.609 124.323C352.745 125.331 351.585 125.835 350.129 125.835C348.673 125.835 347.513 125.275 346.649 124.155ZM349.889 124.299C350.865 124.299 351.649 123.947 352.241 123.243C352.833 122.523 353.129 121.651 353.129 120.627C353.129 119.475 352.801 118.563 352.145 117.891C351.489 117.219 350.729 116.883 349.865 116.883C349.001 116.883 348.233 117.219 347.561 117.891C346.889 118.563 346.553 119.467 346.553 120.603C346.553 121.643 346.857 122.523 347.465 123.243C348.089 123.947 348.897 124.299 349.889 124.299ZM357.53 131.067L360.698 124.611L356.114 115.587H358.082L361.61 122.715L364.85 115.587H366.77L359.45 131.067H357.53ZM369.313 115.587H376.321V123.963H377.809V128.187H376.225V125.547H368.641V128.187H367.057V123.963C367.889 123.947 368.505 123.515 368.905 122.667C369.177 122.107 369.313 121.227 369.313 120.027V115.587ZM374.593 123.963V117.171H371.041V120.915C371.041 122.243 370.641 123.259 369.841 123.963H374.593ZM379.632 125.547V115.587H381.36V119.667H386.064V115.587H387.792V125.547H386.064V121.251H381.36V125.547H379.632ZM389.894 125.547L392.99 121.443C392.894 121.443 392.758 121.427 392.582 121.395C392.422 121.363 392.182 121.283 391.862 121.155C391.542 121.027 391.278 120.859 391.07 120.651C390.542 120.155 390.278 119.491 390.278 118.659C390.278 117.715 390.574 116.971 391.166 116.427C391.758 115.867 392.734 115.587 394.094 115.587H397.574V125.547H395.846V121.539H394.79L391.958 125.547H389.894ZM395.846 120.099V117.123H394.238C393.486 117.123 392.966 117.211 392.678 117.387C392.262 117.659 392.054 118.067 392.054 118.611C392.054 119.155 392.262 119.555 392.678 119.811C392.982 120.003 393.494 120.099 394.214 120.099H395.846ZM408.235 122.211L409.675 123.003C409.339 123.643 408.931 124.179 408.451 124.611C407.539 125.427 406.435 125.835 405.139 125.835C403.795 125.835 402.635 125.403 401.659 124.539C400.699 123.659 400.219 122.355 400.219 120.627C400.219 119.107 400.651 117.851 401.515 116.859C402.395 115.851 403.571 115.347 405.043 115.347C406.707 115.347 407.963 115.955 408.811 117.171C409.483 118.131 409.795 119.379 409.747 120.915H401.995C402.011 121.923 402.323 122.739 402.931 123.363C403.539 123.987 404.283 124.299 405.163 124.299C405.947 124.299 406.627 124.059 407.203 123.579C407.651 123.195 407.995 122.739 408.235 122.211ZM402.115 119.475H407.971C407.827 118.691 407.483 118.067 406.939 117.603C406.411 117.123 405.779 116.883 405.043 116.883C404.323 116.883 403.683 117.131 403.123 117.627C402.579 118.107 402.243 118.723 402.115 119.475ZM418.926 117.171H415.806V125.547H414.078V117.171H410.958V115.587H418.926V117.171ZM427.899 122.211L429.339 123.003C429.003 123.643 428.595 124.179 428.115 124.611C427.203 125.427 426.099 125.835 424.803 125.835C423.459 125.835 422.299 125.403 421.323 124.539C420.363 123.659 419.883 122.355 419.883 120.627C419.883 119.107 420.315 117.851 421.179 116.859C422.059 115.851 423.235 115.347 424.707 115.347C426.371 115.347 427.627 115.955 428.475 117.171C429.147 118.131 429.459 119.379 429.411 120.915H421.659C421.675 121.923 421.987 122.739 422.595 123.363C423.203 123.987 423.947 124.299 424.827 124.299C425.611 124.299 426.291 124.059 426.867 123.579C427.315 123.195 427.659 122.739 427.899 122.211ZM421.779 119.475H427.635C427.491 118.691 427.147 118.067 426.603 117.603C426.075 117.123 425.443 116.883 424.707 116.883C423.987 116.883 423.347 117.131 422.787 117.627C422.243 118.107 421.907 118.723 421.779 119.475ZM439.862 116.307V118.371C439.078 117.379 438.038 116.883 436.742 116.883C435.766 116.883 434.934 117.219 434.246 117.891C433.558 118.547 433.214 119.451 433.214 120.603C433.214 121.755 433.558 122.659 434.246 123.315C434.934 123.971 435.758 124.299 436.718 124.299C437.998 124.299 439.07 123.779 439.934 122.739V124.803C438.99 125.491 437.934 125.835 436.766 125.835C435.214 125.835 433.934 125.347 432.926 124.371C431.934 123.379 431.438 122.131 431.438 120.627C431.438 119.107 431.942 117.851 432.95 116.859C433.958 115.851 435.23 115.347 436.766 115.347C437.918 115.347 438.95 115.667 439.862 116.307ZM442.585 125.547V115.587H444.313V119.403H446.089C447.465 119.403 448.473 119.731 449.113 120.387C449.625 120.899 449.881 121.595 449.881 122.475C449.881 123.403 449.585 124.147 448.993 124.707C448.401 125.267 447.425 125.547 446.065 125.547H442.585ZM444.313 124.011H445.921C446.641 124.011 447.153 123.923 447.457 123.747C447.889 123.459 448.105 123.035 448.105 122.475C448.105 121.899 447.897 121.483 447.481 121.227C447.193 121.035 446.681 120.939 445.945 120.939H444.313V124.011ZM457.796 115.587H461.564C462.476 115.587 463.172 115.779 463.652 116.163C464.228 116.627 464.516 117.251 464.516 118.035C464.516 118.899 464.156 119.563 463.436 120.027C463.932 120.155 464.348 120.379 464.684 120.699C465.212 121.211 465.476 121.851 465.476 122.619C465.476 123.579 465.132 124.331 464.444 124.875C463.852 125.323 463.068 125.547 462.092 125.547H457.796V115.587ZM459.524 119.643H461.348C461.812 119.643 462.18 119.547 462.452 119.355C462.772 119.115 462.932 118.771 462.932 118.323C462.932 117.923 462.772 117.603 462.452 117.363C462.212 117.203 461.748 117.123 461.06 117.123H459.524V119.643ZM459.524 124.011H461.66C462.396 124.011 462.916 123.899 463.22 123.675C463.604 123.387 463.796 123.019 463.796 122.571C463.796 122.091 463.628 121.715 463.292 121.443C462.988 121.203 462.468 121.083 461.732 121.083H459.524V124.011ZM473.71 115.587H477.478C478.39 115.587 479.086 115.779 479.566 116.163C480.142 116.627 480.43 117.251 480.43 118.035C480.43 118.899 480.07 119.563 479.35 120.027C479.846 120.155 480.262 120.379 480.598 120.699C481.126 121.211 481.39 121.851 481.39 122.619C481.39 123.579 481.046 124.331 480.358 124.875C479.766 125.323 478.982 125.547 478.006 125.547H473.71V115.587ZM475.438 119.643H477.262C477.726 119.643 478.094 119.547 478.366 119.355C478.686 119.115 478.846 118.771 478.846 118.323C478.846 117.923 478.686 117.603 478.366 117.363C478.126 117.203 477.662 117.123 476.974 117.123H475.438V119.643ZM475.438 124.011H477.574C478.31 124.011 478.83 123.899 479.134 123.675C479.518 123.387 479.71 123.019 479.71 122.571C479.71 122.091 479.542 121.715 479.206 121.443C478.902 121.203 478.382 121.083 477.646 121.083H475.438V124.011ZM484.023 125.547V115.587H485.751V119.403H487.527C488.903 119.403 489.911 119.731 490.551 120.387C491.063 120.899 491.319 121.595 491.319 122.475C491.319 123.403 491.023 124.147 490.431 124.707C489.839 125.267 488.863 125.547 487.503 125.547H484.023ZM485.751 124.011H487.359C488.079 124.011 488.591 123.923 488.895 123.747C489.327 123.459 489.543 123.035 489.543 122.475C489.543 121.899 489.335 121.483 488.919 121.227C488.631 121.035 488.119 120.939 487.383 120.939H485.751V124.011ZM492.519 125.547V115.587H494.247V125.547H492.519ZM505.179 108.747H507.099C506.923 109.339 506.619 109.843 506.187 110.259C505.771 110.659 505.387 110.931 505.035 111.075C504.699 111.219 504.299 111.347 503.835 111.459C503.755 111.475 503.563 111.523 503.259 111.603C502.955 111.667 502.723 111.723 502.563 111.771C502.403 111.819 502.195 111.883 501.939 111.963C501.683 112.043 501.451 112.139 501.243 112.251C501.035 112.363 500.843 112.483 500.667 112.611C500.059 113.075 499.563 113.723 499.179 114.555C498.811 115.371 498.611 116.243 498.579 117.171H498.627C499.347 115.955 500.555 115.347 502.251 115.347C503.739 115.347 504.971 115.851 505.947 116.859C506.939 117.867 507.435 119.115 507.435 120.603C507.435 122.107 506.931 123.355 505.923 124.347C504.915 125.339 503.603 125.835 501.987 125.835C500.595 125.835 499.451 125.419 498.555 124.587C497.435 123.563 496.875 121.851 496.875 119.451C496.875 115.275 497.819 112.539 499.707 111.243C499.851 111.147 500.003 111.059 500.163 110.979C500.323 110.883 500.491 110.803 500.667 110.739C500.859 110.659 501.019 110.595 501.147 110.547C501.275 110.483 501.451 110.427 501.675 110.379C501.915 110.315 502.075 110.275 502.155 110.259C502.251 110.227 502.427 110.187 502.683 110.139C502.955 110.075 503.123 110.035 503.187 110.019C503.827 109.875 504.291 109.707 504.579 109.515C504.867 109.307 505.067 109.051 505.179 108.747ZM504.627 117.867C503.955 117.211 503.131 116.883 502.155 116.883C501.179 116.883 500.347 117.219 499.659 117.891C498.987 118.547 498.651 119.451 498.651 120.603C498.651 121.755 498.995 122.659 499.683 123.315C500.371 123.971 501.195 124.299 502.155 124.299C503.115 124.299 503.939 123.971 504.627 123.315C505.315 122.659 505.659 121.755 505.659 120.603C505.659 119.435 505.315 118.523 504.627 117.867ZM518.509 124.347C517.517 125.339 516.261 125.835 514.741 125.835C513.221 125.835 511.957 125.339 510.949 124.347C509.957 123.355 509.461 122.107 509.461 120.603C509.461 119.083 509.957 117.827 510.949 116.835C511.957 115.843 513.221 115.347 514.741 115.347C516.261 115.347 517.517 115.843 518.509 116.835C519.517 117.827 520.021 119.083 520.021 120.603C520.021 122.107 519.517 123.355 518.509 124.347ZM517.213 117.867C516.541 117.211 515.717 116.883 514.741 116.883C513.765 116.883 512.933 117.219 512.245 117.891C511.573 118.547 511.237 119.451 511.237 120.603C511.237 121.755 511.581 122.659 512.269 123.315C512.957 123.971 513.781 124.299 514.741 124.299C515.701 124.299 516.525 123.971 517.213 123.315C517.901 122.659 518.245 121.755 518.245 120.603C518.245 119.435 517.901 118.523 517.213 117.867ZM524.399 124.155V131.067H522.671V115.587H524.399V116.979C525.279 115.891 526.415 115.347 527.807 115.347C529.295 115.347 530.471 115.875 531.335 116.931C532.215 117.971 532.655 119.203 532.655 120.627C532.655 122.067 532.223 123.299 531.359 124.323C530.495 125.331 529.335 125.835 527.879 125.835C526.423 125.835 525.263 125.275 524.399 124.155ZM527.639 124.299C528.615 124.299 529.399 123.947 529.991 123.243C530.583 122.523 530.879 121.651 530.879 120.627C530.879 119.475 530.551 118.563 529.895 117.891C529.239 117.219 528.479 116.883 527.615 116.883C526.751 116.883 525.983 117.219 525.311 117.891C524.639 118.563 524.303 119.467 524.303 120.603C524.303 121.643 524.607 122.523 525.215 123.243C525.839 123.947 526.647 124.299 527.639 124.299ZM542.696 122.211L544.136 123.003C543.8 123.643 543.392 124.179 542.912 124.611C542 125.427 540.896 125.835 539.6 125.835C538.256 125.835 537.096 125.403 536.12 124.539C535.16 123.659 534.68 122.355 534.68 120.627C534.68 119.107 535.112 117.851 535.976 116.859C536.856 115.851 538.032 115.347 539.504 115.347C541.168 115.347 542.424 115.955 543.272 117.171C543.944 118.131 544.256 119.379 544.208 120.915H536.456C536.472 121.923 536.784 122.739 537.392 123.363C538 123.987 538.744 124.299 539.624 124.299C540.408 124.299 541.088 124.059 541.664 123.579C542.112 123.195 542.456 122.739 542.696 122.211ZM536.576 119.475H542.432C542.288 118.691 541.944 118.067 541.4 117.603C540.872 117.123 540.24 116.883 539.504 116.883C538.784 116.883 538.144 117.131 537.584 117.627C537.04 118.107 536.704 118.723 536.576 119.475ZM88.3815 147.307V149.371C87.5975 148.379 86.5575 147.883 85.2615 147.883C84.2855 147.883 83.4535 148.219 82.7655 148.891C82.0775 149.547 81.7335 150.451 81.7335 151.603C81.7335 152.755 82.0775 153.659 82.7655 154.315C83.4535 154.971 84.2775 155.299 85.2375 155.299C86.5175 155.299 87.5895 154.779 88.4535 153.739V155.803C87.5095 156.491 86.4535 156.835 85.2855 156.835C83.7335 156.835 82.4535 156.347 81.4455 155.371C80.4535 154.379 79.9575 153.131 79.9575 151.627C79.9575 150.107 80.4615 148.851 81.4695 147.859C82.4775 146.851 83.7495 146.347 85.2855 146.347C86.4375 146.347 87.4695 146.667 88.3815 147.307ZM91.1049 146.587H94.8729C95.7849 146.587 96.4809 146.779 96.9609 147.163C97.5369 147.627 97.8249 148.251 97.8249 149.035C97.8249 149.899 97.4649 150.563 96.7449 151.027C97.2409 151.155 97.6569 151.379 97.9929 151.699C98.5209 152.211 98.7849 152.851 98.7849 153.619C98.7849 154.579 98.4409 155.331 97.7529 155.875C97.1609 156.323 96.3769 156.547 95.4009 156.547H91.1049V146.587ZM92.8329 150.643H94.6569C95.1209 150.643 95.4889 150.547 95.7609 150.355C96.0809 150.115 96.2409 149.771 96.2409 149.323C96.2409 148.923 96.0809 148.603 95.7609 148.363C95.5209 148.203 95.0569 148.123 94.3689 148.123H92.8329V150.643ZM92.8329 155.011H94.9689C95.7049 155.011 96.2249 154.899 96.5289 154.675C96.9129 154.387 97.1049 154.019 97.1049 153.571C97.1049 153.091 96.9369 152.715 96.6009 152.443C96.2969 152.203 95.7769 152.083 95.0409 152.083H92.8329V155.011ZM109.049 148.003V146.587H110.777V156.547H109.049V155.155C108.185 156.275 107.049 156.835 105.641 156.835C104.297 156.835 103.153 156.371 102.209 155.443C101.265 154.515 100.793 153.219 100.793 151.555C100.793 149.923 101.257 148.651 102.185 147.739C103.129 146.811 104.281 146.347 105.641 146.347C107.081 146.347 108.217 146.899 109.049 148.003ZM105.833 147.883C104.921 147.883 104.145 148.211 103.505 148.867C102.881 149.507 102.569 150.403 102.569 151.555C102.569 152.659 102.857 153.563 103.433 154.267C104.025 154.955 104.825 155.299 105.833 155.299C106.841 155.299 107.641 154.939 108.233 154.219C108.841 153.499 109.145 152.619 109.145 151.579C109.145 150.395 108.809 149.483 108.137 148.843C107.465 148.203 106.697 147.883 105.833 147.883ZM114.77 146.587H121.778V154.963H123.266V159.187H121.682V156.547H114.098V159.187H112.514V154.963C113.346 154.947 113.962 154.515 114.362 153.667C114.634 153.107 114.77 152.227 114.77 151.027V146.587ZM120.05 154.963V148.171H116.498V151.915C116.498 153.243 116.098 154.259 115.298 154.963H120.05ZM132.481 153.211L133.921 154.003C133.585 154.643 133.177 155.179 132.697 155.611C131.785 156.427 130.681 156.835 129.385 156.835C128.041 156.835 126.881 156.403 125.905 155.539C124.945 154.659 124.465 153.355 124.465 151.627C124.465 150.107 124.897 148.851 125.761 147.859C126.641 146.851 127.817 146.347 129.289 146.347C130.953 146.347 132.209 146.955 133.057 148.171C133.729 149.131 134.041 150.379 133.993 151.915H126.241C126.257 152.923 126.569 153.739 127.177 154.363C127.785 154.987 128.529 155.299 129.409 155.299C130.193 155.299 130.873 155.059 131.449 154.579C131.897 154.195 132.241 153.739 132.481 153.211ZM126.361 150.475H132.217C132.073 149.691 131.729 149.067 131.185 148.603C130.657 148.123 130.025 147.883 129.289 147.883C128.569 147.883 127.929 148.131 127.369 148.627C126.825 149.107 126.489 149.723 126.361 150.475ZM144.324 139.747H146.244C146.068 140.339 145.764 140.843 145.332 141.259C144.916 141.659 144.532 141.931 144.18 142.075C143.844 142.219 143.444 142.347 142.98 142.459C142.9 142.475 142.708 142.523 142.404 142.603C142.1 142.667 141.868 142.723 141.708 142.771C141.548 142.819 141.34 142.883 141.084 142.963C140.828 143.043 140.596 143.139 140.388 143.251C140.18 143.363 139.988 143.483 139.812 143.611C139.204 144.075 138.708 144.723 138.324 145.555C137.956 146.371 137.756 147.243 137.724 148.171H137.772C138.492 146.955 139.7 146.347 141.396 146.347C142.884 146.347 144.116 146.851 145.092 147.859C146.084 148.867 146.58 150.115 146.58 151.603C146.58 153.107 146.076 154.355 145.068 155.347C144.06 156.339 142.748 156.835 141.132 156.835C139.74 156.835 138.596 156.419 137.7 155.587C136.58 154.563 136.02 152.851 136.02 150.451C136.02 146.275 136.964 143.539 138.852 142.243C138.996 142.147 139.148 142.059 139.308 141.979C139.468 141.883 139.636 141.803 139.812 141.739C140.004 141.659 140.164 141.595 140.292 141.547C140.42 141.483 140.596 141.427 140.82 141.379C141.06 141.315 141.22 141.275 141.3 141.259C141.396 141.227 141.572 141.187 141.828 141.139C142.1 141.075 142.268 141.035 142.332 141.019C142.972 140.875 143.436 140.707 143.724 140.515C144.012 140.307 144.212 140.051 144.324 139.747ZM143.772 148.867C143.1 148.211 142.276 147.883 141.3 147.883C140.324 147.883 139.492 148.219 138.804 148.891C138.132 149.547 137.796 150.451 137.796 151.603C137.796 152.755 138.14 153.659 138.828 154.315C139.516 154.971 140.34 155.299 141.3 155.299C142.26 155.299 143.084 154.971 143.772 154.315C144.46 153.659 144.804 152.755 144.804 151.603C144.804 150.435 144.46 149.523 143.772 148.867ZM149.23 156.547V146.587H150.958V150.667H155.662V146.587H157.39V156.547H155.662V152.251H150.958V156.547H149.23ZM169.068 155.347C168.076 156.339 166.82 156.835 165.3 156.835C163.78 156.835 162.516 156.339 161.508 155.347C160.516 154.355 160.02 153.107 160.02 151.603C160.02 150.083 160.516 148.827 161.508 147.835C162.516 146.843 163.78 146.347 165.3 146.347C166.82 146.347 168.076 146.843 169.068 147.835C170.076 148.827 170.58 150.083 170.58 151.603C170.58 153.107 170.076 154.355 169.068 155.347ZM167.772 148.867C167.1 148.211 166.276 147.883 165.3 147.883C164.324 147.883 163.492 148.219 162.804 148.891C162.132 149.547 161.796 150.451 161.796 151.603C161.796 152.755 162.14 153.659 162.828 154.315C163.516 154.971 164.34 155.299 165.3 155.299C166.26 155.299 167.084 154.971 167.772 154.315C168.46 153.659 168.804 152.755 168.804 151.603C168.804 150.435 168.46 149.523 167.772 148.867ZM173.23 156.547V146.587H179.134V148.171H174.958V156.547H173.23ZM188.779 155.347C187.787 156.339 186.531 156.835 185.011 156.835C183.491 156.835 182.227 156.339 181.219 155.347C180.227 154.355 179.731 153.107 179.731 151.603C179.731 150.083 180.227 148.827 181.219 147.835C182.227 146.843 183.491 146.347 185.011 146.347C186.531 146.347 187.787 146.843 188.779 147.835C189.787 148.827 190.291 150.083 190.291 151.603C190.291 153.107 189.787 154.355 188.779 155.347ZM187.483 148.867C186.811 148.211 185.987 147.883 185.011 147.883C184.035 147.883 183.203 148.219 182.515 148.891C181.843 149.547 181.507 150.451 181.507 151.603C181.507 152.755 181.851 153.659 182.539 154.315C183.227 154.971 184.051 155.299 185.011 155.299C185.971 155.299 186.795 154.971 187.483 154.315C188.171 153.659 188.515 152.755 188.515 151.603C188.515 150.435 188.171 149.523 187.483 148.867ZM198.542 146.587H206.558V156.547H204.83V148.171H200.27V156.547H198.542V146.587ZM218.24 155.347C217.248 156.339 215.992 156.835 214.472 156.835C212.952 156.835 211.688 156.339 210.68 155.347C209.688 154.355 209.192 153.107 209.192 151.603C209.192 150.083 209.688 148.827 210.68 147.835C211.688 146.843 212.952 146.347 214.472 146.347C215.992 146.347 217.248 146.843 218.24 147.835C219.248 148.827 219.752 150.083 219.752 151.603C219.752 153.107 219.248 154.355 218.24 155.347ZM216.944 148.867C216.272 148.211 215.448 147.883 214.472 147.883C213.496 147.883 212.664 148.219 211.976 148.891C211.304 149.547 210.968 150.451 210.968 151.603C210.968 152.755 211.312 153.659 212 154.315C212.688 154.971 213.512 155.299 214.472 155.299C215.432 155.299 216.256 154.971 216.944 154.315C217.632 153.659 217.976 152.755 217.976 151.603C217.976 150.435 217.632 149.523 216.944 148.867ZM223.122 146.587H230.13V154.963H231.618V159.187H230.034V156.547H222.45V159.187H220.866V154.963C221.698 154.947 222.314 154.515 222.714 153.667C222.986 153.107 223.122 152.227 223.122 151.027V146.587ZM228.402 154.963V148.171H224.85V151.915C224.85 153.243 224.45 154.259 223.65 154.963H228.402ZM241.073 148.003V146.587H242.801V156.547H241.073V155.155C240.209 156.275 239.073 156.835 237.665 156.835C236.321 156.835 235.177 156.371 234.233 155.443C233.289 154.515 232.817 153.219 232.817 151.555C232.817 149.923 233.281 148.651 234.209 147.739C235.153 146.811 236.305 146.347 237.665 146.347C239.105 146.347 240.241 146.899 241.073 148.003ZM237.857 147.883C236.945 147.883 236.169 148.211 235.529 148.867C234.905 149.507 234.593 150.403 234.593 151.555C234.593 152.659 234.881 153.563 235.457 154.267C236.049 154.955 236.849 155.299 237.857 155.299C238.865 155.299 239.665 154.939 240.257 154.219C240.865 153.499 241.169 152.619 241.169 151.579C241.169 150.395 240.833 149.483 240.161 148.843C239.489 148.203 238.721 147.883 237.857 147.883ZM247.802 155.155V162.067H246.074V146.587H247.802V147.979C248.682 146.891 249.818 146.347 251.21 146.347C252.698 146.347 253.874 146.875 254.738 147.931C255.618 148.971 256.058 150.203 256.058 151.627C256.058 153.067 255.626 154.299 254.762 155.323C253.898 156.331 252.738 156.835 251.282 156.835C249.826 156.835 248.666 156.275 247.802 155.155ZM251.042 155.299C252.018 155.299 252.802 154.947 253.394 154.243C253.986 153.523 254.282 152.651 254.282 151.627C254.282 150.475 253.954 149.563 253.298 148.891C252.642 148.219 251.882 147.883 251.018 147.883C250.154 147.883 249.386 148.219 248.714 148.891C248.042 149.563 247.706 150.467 247.706 151.603C247.706 152.643 248.01 153.523 248.618 154.243C249.242 154.947 250.05 155.299 251.042 155.299ZM258.706 146.587H260.434V150.667L264.466 146.587H266.578L262.258 151.027L267.106 156.547H264.85L260.962 152.179L260.434 152.683V156.547H258.706V146.587ZM276.463 148.003V146.587H278.191V156.547H276.463V155.155C275.599 156.275 274.463 156.835 273.055 156.835C271.711 156.835 270.567 156.371 269.623 155.443C268.679 154.515 268.207 153.219 268.207 151.555C268.207 149.923 268.671 148.651 269.599 147.739C270.543 146.811 271.695 146.347 273.055 146.347C274.495 146.347 275.631 146.899 276.463 148.003ZM273.247 147.883C272.335 147.883 271.559 148.211 270.919 148.867C270.295 149.507 269.983 150.403 269.983 151.555C269.983 152.659 270.271 153.563 270.847 154.267C271.439 154.955 272.239 155.299 273.247 155.299C274.255 155.299 275.055 154.939 275.647 154.219C276.255 153.499 276.559 152.619 276.559 151.579C276.559 150.395 276.223 149.483 275.551 148.843C274.879 148.203 274.111 147.883 273.247 147.883ZM280.408 159.739L282.376 154.195L283.96 154.771L281.536 160.195L280.408 159.739ZM293.652 146.587H301.668V156.547H299.94V148.171H295.38V156.547H293.652V146.587ZM306.653 155.155V162.067H304.925V146.587H306.653V147.979C307.533 146.891 308.669 146.347 310.061 146.347C311.549 146.347 312.725 146.875 313.589 147.931C314.469 148.971 314.909 150.203 314.909 151.627C314.909 153.067 314.477 154.299 313.613 155.323C312.749 156.331 311.589 156.835 310.133 156.835C308.677 156.835 307.517 156.275 306.653 155.155ZM309.893 155.299C310.869 155.299 311.653 154.947 312.245 154.243C312.837 153.523 313.133 152.651 313.133 151.627C313.133 150.475 312.805 149.563 312.149 148.891C311.493 148.219 310.733 147.883 309.869 147.883C309.005 147.883 308.237 148.219 307.565 148.891C306.893 149.563 306.557 150.467 306.557 151.603C306.557 152.643 306.861 153.523 307.469 154.243C308.093 154.947 308.901 155.299 309.893 155.299ZM324.95 153.211L326.39 154.003C326.054 154.643 325.646 155.179 325.166 155.611C324.254 156.427 323.15 156.835 321.854 156.835C320.51 156.835 319.35 156.403 318.374 155.539C317.414 154.659 316.934 153.355 316.934 151.627C316.934 150.107 317.366 148.851 318.23 147.859C319.11 146.851 320.286 146.347 321.758 146.347C323.422 146.347 324.678 146.955 325.526 148.171C326.198 149.131 326.51 150.379 326.462 151.915H318.71C318.726 152.923 319.038 153.739 319.646 154.363C320.254 154.987 320.998 155.299 321.878 155.299C322.662 155.299 323.342 155.059 323.918 154.579C324.366 154.195 324.71 153.739 324.95 153.211ZM318.83 150.475H324.686C324.542 149.691 324.198 149.067 323.654 148.603C323.126 148.123 322.494 147.883 321.758 147.883C321.038 147.883 320.398 148.131 319.838 148.627C319.294 149.107 318.958 149.723 318.83 150.475ZM329.833 146.587H336.841V154.963H338.329V159.187H336.745V156.547H329.161V159.187H327.577V154.963C328.409 154.947 329.025 154.515 329.425 153.667C329.697 153.107 329.833 152.227 329.833 151.027V146.587ZM335.113 154.963V148.171H331.561V151.915C331.561 153.243 331.161 154.259 330.361 154.963H335.113ZM348.414 146.587V156.547H346.686V148.171H343.134V152.659C343.134 153.955 342.878 154.915 342.366 155.539C341.79 156.243 340.99 156.595 339.966 156.595C339.838 156.595 339.662 156.579 339.438 156.547V154.963C339.598 154.995 339.726 155.011 339.822 155.011C340.382 155.011 340.798 154.795 341.07 154.363C341.294 154.011 341.406 153.443 341.406 152.659V146.587H348.414ZM359.315 148.003V146.587H361.043V156.547H359.315V155.155C358.451 156.275 357.315 156.835 355.907 156.835C354.563 156.835 353.419 156.371 352.475 155.443C351.531 154.515 351.059 153.219 351.059 151.555C351.059 149.923 351.523 148.651 352.451 147.739C353.395 146.811 354.547 146.347 355.907 146.347C357.347 146.347 358.483 146.899 359.315 148.003ZM356.099 147.883C355.187 147.883 354.411 148.211 353.771 148.867C353.147 149.507 352.835 150.403 352.835 151.555C352.835 152.659 353.123 153.563 353.699 154.267C354.291 154.955 355.091 155.299 356.099 155.299C357.107 155.299 357.907 154.939 358.499 154.219C359.107 153.499 359.411 152.619 359.411 151.579C359.411 150.395 359.075 149.483 358.403 148.843C357.731 148.203 356.963 147.883 356.099 147.883ZM364.316 156.547V146.587H370.22V148.171H366.044V156.547H364.316ZM379.588 148.003V146.587H381.316V156.547H379.588V155.155C378.724 156.275 377.588 156.835 376.18 156.835C374.836 156.835 373.692 156.371 372.748 155.443C371.804 154.515 371.332 153.219 371.332 151.555C371.332 149.923 371.796 148.651 372.724 147.739C373.668 146.811 374.82 146.347 376.18 146.347C377.62 146.347 378.756 146.899 379.588 148.003ZM376.372 147.883C375.46 147.883 374.684 148.211 374.044 148.867C373.42 149.507 373.108 150.403 373.108 151.555C373.108 152.659 373.396 153.563 373.972 154.267C374.564 154.955 375.364 155.299 376.372 155.299C377.38 155.299 378.18 154.939 378.772 154.219C379.38 153.499 379.684 152.619 379.684 151.579C379.684 150.395 379.348 149.483 378.676 148.843C378.004 148.203 377.236 147.883 376.372 147.883ZM391.981 153.211L393.421 154.003C393.085 154.643 392.677 155.179 392.197 155.611C391.285 156.427 390.181 156.835 388.885 156.835C387.541 156.835 386.381 156.403 385.405 155.539C384.445 154.659 383.965 153.355 383.965 151.627C383.965 150.107 384.397 148.851 385.261 147.859C386.141 146.851 387.317 146.347 388.789 146.347C390.453 146.347 391.709 146.955 392.557 148.171C393.229 149.131 393.541 150.379 393.493 151.915H385.741C385.757 152.923 386.069 153.739 386.677 154.363C387.285 154.987 388.029 155.299 388.909 155.299C389.693 155.299 390.373 155.059 390.949 154.579C391.397 154.195 391.741 153.739 391.981 153.211ZM385.861 150.475H391.717C391.573 149.691 391.229 149.067 390.685 148.603C390.157 148.123 389.525 147.883 388.789 147.883C388.069 147.883 387.429 148.131 386.869 148.627C386.325 149.107 385.989 149.723 385.861 150.475ZM394.992 156.547L397.392 145.819L401.52 153.931L405.552 145.819L407.952 156.547H406.176L404.856 150.379L401.472 157.243L398.04 150.379L396.768 156.547H394.992ZM415.667 146.587H419.435C420.347 146.587 421.043 146.779 421.523 147.163C422.099 147.627 422.387 148.251 422.387 149.035C422.387 149.899 422.027 150.563 421.307 151.027C421.803 151.155 422.219 151.379 422.555 151.699C423.083 152.211 423.347 152.851 423.347 153.619C423.347 154.579 423.003 155.331 422.315 155.875C421.723 156.323 420.939 156.547 419.963 156.547H415.667V146.587ZM417.395 150.643H419.219C419.683 150.643 420.051 150.547 420.323 150.355C420.643 150.115 420.803 149.771 420.803 149.323C420.803 148.923 420.643 148.603 420.323 148.363C420.083 148.203 419.619 148.123 418.931 148.123H417.395V150.643ZM417.395 155.011H419.531C420.267 155.011 420.787 154.899 421.091 154.675C421.475 154.387 421.667 154.019 421.667 153.571C421.667 153.091 421.499 152.715 421.163 152.443C420.859 152.203 420.339 152.083 419.603 152.083H417.395V155.011ZM427.276 149.131L426.076 148.147C426.46 147.587 426.884 147.171 427.348 146.899C427.972 146.531 428.7 146.347 429.532 146.347C430.54 146.347 431.324 146.579 431.884 147.043C432.46 147.539 432.748 148.171 432.748 148.939C432.748 149.867 432.372 150.563 431.62 151.027C432.1 151.139 432.484 151.355 432.772 151.675C433.236 152.171 433.468 152.779 433.468 153.499C433.468 154.571 433.036 155.427 432.172 156.067C431.468 156.579 430.524 156.835 429.34 156.835C428.284 156.835 427.396 156.555 426.676 155.995C426.132 155.595 425.692 155.027 425.356 154.291L426.844 153.667C427.02 154.115 427.316 154.491 427.732 154.795C428.18 155.131 428.724 155.299 429.364 155.299C430.116 155.299 430.676 155.171 431.044 154.915C431.508 154.611 431.74 154.147 431.74 153.523C431.74 153.011 431.54 152.627 431.14 152.371C430.804 152.147 430.26 152.035 429.508 152.035H428.5V150.451H429.34C429.948 150.451 430.38 150.363 430.636 150.187C430.988 149.963 431.164 149.659 431.164 149.275C431.164 148.827 431.02 148.483 430.732 148.243C430.46 148.003 430.036 147.883 429.46 147.883C428.964 147.883 428.508 148.011 428.092 148.267C427.74 148.491 427.468 148.779 427.276 149.131ZM436.105 156.547V146.587H442.009V148.171H437.833V156.547H436.105ZM451.047 146.587V156.547H449.319V148.171H445.767V152.659C445.767 153.955 445.511 154.915 444.999 155.539C444.423 156.243 443.623 156.595 442.599 156.595C442.471 156.595 442.295 156.579 442.071 156.547V154.963C442.231 154.995 442.359 155.011 442.455 155.011C443.015 155.011 443.431 154.795 443.703 154.363C443.927 154.011 444.039 153.443 444.039 152.659V146.587H451.047ZM453.164 156.547L456.26 152.443C456.164 152.443 456.028 152.427 455.852 152.395C455.692 152.363 455.452 152.283 455.132 152.155C454.812 152.027 454.548 151.859 454.34 151.651C453.812 151.155 453.548 150.491 453.548 149.659C453.548 148.715 453.844 147.971 454.436 147.427C455.028 146.867 456.004 146.587 457.364 146.587H460.844V156.547H459.116V152.539H458.06L455.228 156.547H453.164ZM459.116 151.099V148.123H457.508C456.756 148.123 456.236 148.211 455.948 148.387C455.532 148.659 455.324 149.067 455.324 149.611C455.324 150.155 455.532 150.555 455.948 150.811C456.252 151.003 456.764 151.099 457.484 151.099H459.116ZM464.113 156.547V146.587H465.841V150.667H470.545V146.587H472.273V156.547H470.545V152.251H465.841V156.547H464.113ZM475.503 162.067L478.671 155.611L474.087 146.587H476.055L479.583 153.715L482.823 146.587H484.743L477.423 162.067H475.503ZM493.609 148.171H490.489V156.547H488.761V148.171H485.641V146.587H493.609V148.171ZM495.425 156.547V146.587H497.153V150.403H498.929C500.305 150.403 501.313 150.731 501.953 151.387C502.465 151.899 502.721 152.595 502.721 153.475C502.721 154.403 502.425 155.147 501.833 155.707C501.241 156.267 500.265 156.547 498.905 156.547H495.425ZM497.153 155.011H498.761C499.481 155.011 499.993 154.923 500.297 154.747C500.729 154.459 500.945 154.035 500.945 153.475C500.945 152.899 500.737 152.483 500.321 152.227C500.033 152.035 499.521 151.939 498.785 151.939H497.153V155.011ZM510.636 156.547V146.587H512.364V150.667H517.068V146.587H518.796V156.547H517.068V152.251H512.364V156.547H510.636ZM529.682 148.003V146.587H531.41V156.547H529.682V155.155C528.818 156.275 527.682 156.835 526.274 156.835C524.93 156.835 523.786 156.371 522.842 155.443C521.898 154.515 521.426 153.219 521.426 151.555C521.426 149.923 521.89 148.651 522.818 147.739C523.762 146.811 524.914 146.347 526.274 146.347C527.714 146.347 528.85 146.899 529.682 148.003ZM526.466 147.883C525.554 147.883 524.778 148.211 524.138 148.867C523.514 149.507 523.202 150.403 523.202 151.555C523.202 152.659 523.49 153.563 524.066 154.267C524.658 154.955 525.458 155.299 526.466 155.299C527.474 155.299 528.274 154.939 528.866 154.219C529.474 153.499 529.778 152.619 529.778 151.579C529.778 150.395 529.442 149.483 528.77 148.843C528.098 148.203 527.33 147.883 526.466 147.883ZM108.995 178.307V180.371C108.211 179.379 107.171 178.883 105.875 178.883C104.899 178.883 104.067 179.219 103.379 179.891C102.691 180.547 102.347 181.451 102.347 182.603C102.347 183.755 102.691 184.659 103.379 185.315C104.067 185.971 104.891 186.299 105.851 186.299C107.131 186.299 108.203 185.779 109.067 184.739V186.803C108.123 187.491 107.067 187.835 105.899 187.835C104.347 187.835 103.067 187.347 102.059 186.371C101.067 185.379 100.571 184.131 100.571 182.627C100.571 181.107 101.075 179.851 102.083 178.859C103.091 177.851 104.363 177.347 105.899 177.347C107.051 177.347 108.083 177.667 108.995 178.307ZM111.718 177.587H119.734V187.547H118.006V179.171H113.446V187.547H111.718V177.587ZM122.992 177.587H124.72V184.163L131.536 176.819V187.547H129.808V180.899L122.992 188.243V177.587ZM142.604 178.307V180.371C141.82 179.379 140.78 178.883 139.484 178.883C138.508 178.883 137.676 179.219 136.988 179.891C136.3 180.547 135.956 181.451 135.956 182.603C135.956 183.755 136.3 184.659 136.988 185.315C137.676 185.971 138.5 186.299 139.46 186.299C140.74 186.299 141.812 185.779 142.676 184.739V186.803C141.732 187.491 140.676 187.835 139.508 187.835C137.956 187.835 136.676 187.347 135.668 186.371C134.676 185.379 134.18 184.131 134.18 182.627C134.18 181.107 134.684 179.851 135.692 178.859C136.7 177.851 137.972 177.347 139.508 177.347C140.66 177.347 141.692 177.667 142.604 178.307ZM153.494 186.347C152.502 187.339 151.246 187.835 149.726 187.835C148.206 187.835 146.942 187.339 145.934 186.347C144.942 185.355 144.446 184.107 144.446 182.603C144.446 181.083 144.942 179.827 145.934 178.835C146.942 177.843 148.206 177.347 149.726 177.347C151.246 177.347 152.502 177.843 153.494 178.835C154.502 179.827 155.006 181.083 155.006 182.603C155.006 184.107 154.502 185.355 153.494 186.347ZM152.198 179.867C151.526 179.211 150.702 178.883 149.726 178.883C148.75 178.883 147.918 179.219 147.23 179.891C146.558 180.547 146.222 181.451 146.222 182.603C146.222 183.755 146.566 184.659 147.254 185.315C147.942 185.971 148.766 186.299 149.726 186.299C150.686 186.299 151.51 185.971 152.198 185.315C152.886 184.659 153.23 183.755 153.23 182.603C153.23 181.435 152.886 180.523 152.198 179.867ZM157.656 177.587H159.384V181.667L163.416 177.587H165.528L161.208 182.027L166.056 187.547H163.8L159.912 183.179L159.384 183.683V187.547H157.656V177.587ZM173.382 187.547V177.587H175.11V181.667H179.814V177.587H181.542V187.547H179.814V183.251H175.11V187.547H173.382ZM192.428 179.003V177.587H194.156V187.547H192.428V186.155C191.564 187.275 190.428 187.835 189.02 187.835C187.676 187.835 186.532 187.371 185.588 186.443C184.644 185.515 184.172 184.219 184.172 182.555C184.172 180.923 184.636 179.651 185.564 178.739C186.508 177.811 187.66 177.347 189.02 177.347C190.46 177.347 191.596 177.899 192.428 179.003ZM189.212 178.883C188.3 178.883 187.524 179.211 186.884 179.867C186.26 180.507 185.948 181.403 185.948 182.555C185.948 183.659 186.236 184.563 186.812 185.267C187.404 185.955 188.204 186.299 189.212 186.299C190.22 186.299 191.02 185.939 191.612 185.219C192.22 184.499 192.524 183.619 192.524 182.579C192.524 181.395 192.188 180.483 191.516 179.843C190.844 179.203 190.076 178.883 189.212 178.883ZM197.429 187.547V177.587H199.157V185.963H202.997V177.587H204.725V185.963H208.565V177.587H210.293V187.547H197.429ZM213.554 177.587H215.282V184.163L222.098 176.819V187.547H220.37V180.899L213.554 188.243V177.587ZM223.927 187.547L228.175 182.219L224.551 177.587H226.663L229.231 180.971L231.847 177.587H233.959L230.311 182.243L234.439 187.547H232.327L229.183 183.491L226.039 187.547H223.927ZM241.867 177.587H249.883V187.547H248.155V179.171H243.595V187.547H241.867V177.587ZM261.564 186.347C260.572 187.339 259.316 187.835 257.796 187.835C256.276 187.835 255.012 187.339 254.004 186.347C253.012 185.355 252.516 184.107 252.516 182.603C252.516 181.083 253.012 179.827 254.004 178.835C255.012 177.843 256.276 177.347 257.796 177.347C259.316 177.347 260.572 177.843 261.564 178.835C262.572 179.827 263.076 181.083 263.076 182.603C263.076 184.107 262.572 185.355 261.564 186.347ZM260.268 179.867C259.596 179.211 258.772 178.883 257.796 178.883C256.82 178.883 255.988 179.219 255.3 179.891C254.628 180.547 254.292 181.451 254.292 182.603C254.292 183.755 254.636 184.659 255.324 185.315C256.012 185.971 256.836 186.299 257.796 186.299C258.756 186.299 259.58 185.971 260.268 185.315C260.956 184.659 261.3 183.755 261.3 182.603C261.3 181.435 260.956 180.523 260.268 179.867ZM270.382 177.587H272.11V181.667L275.854 177.587H277.87L273.55 182.195L278.302 187.547H276.142L272.446 183.347L272.11 183.683V187.547H270.382V183.683L270.046 183.347L266.35 187.547H264.19L268.942 182.195L264.622 177.587H266.638L270.382 181.667V177.587ZM287.181 184.211L288.621 185.003C288.285 185.643 287.877 186.179 287.397 186.611C286.485 187.427 285.381 187.835 284.085 187.835C282.741 187.835 281.581 187.403 280.605 186.539C279.645 185.659 279.165 184.355 279.165 182.627C279.165 181.107 279.597 179.851 280.461 178.859C281.341 177.851 282.517 177.347 283.989 177.347C285.653 177.347 286.909 177.955 287.757 179.171C288.429 180.131 288.741 181.379 288.693 182.915H280.941C280.957 183.923 281.269 184.739 281.877 185.363C282.485 185.987 283.229 186.299 284.109 186.299C284.893 186.299 285.573 186.059 286.149 185.579C286.597 185.195 286.941 184.739 287.181 184.211ZM281.061 181.475H286.917C286.773 180.691 286.429 180.067 285.885 179.603C285.357 179.123 284.725 178.883 283.989 178.883C283.269 178.883 282.629 179.131 282.069 179.627C281.525 180.107 281.189 180.723 281.061 181.475ZM298.879 177.587V187.547H297.151V179.171H293.599V183.659C293.599 184.955 293.343 185.915 292.831 186.539C292.255 187.243 291.455 187.595 290.431 187.595C290.303 187.595 290.127 187.579 289.903 187.547V185.963C290.063 185.995 290.191 186.011 290.287 186.011C290.847 186.011 291.263 185.795 291.535 185.363C291.759 185.011 291.871 184.443 291.871 183.659V177.587H298.879ZM309.78 179.003V177.587H311.508V187.547H309.78V186.155C308.916 187.275 307.78 187.835 306.372 187.835C305.028 187.835 303.884 187.371 302.94 186.443C301.996 185.515 301.524 184.219 301.524 182.555C301.524 180.923 301.988 179.651 302.916 178.739C303.86 177.811 305.012 177.347 306.372 177.347C307.812 177.347 308.948 177.899 309.78 179.003ZM306.564 178.883C305.652 178.883 304.876 179.211 304.236 179.867C303.612 180.507 303.3 181.403 303.3 182.555C303.3 183.659 303.588 184.563 304.164 185.267C304.756 185.955 305.556 186.299 306.564 186.299C307.572 186.299 308.372 185.939 308.964 185.219C309.572 184.499 309.876 183.619 309.876 182.579C309.876 181.395 309.54 180.483 308.868 179.843C308.196 179.203 307.428 178.883 306.564 178.883ZM314.781 187.547V177.587H316.509V181.667H321.213V177.587H322.941V187.547H321.213V183.251H316.509V187.547H314.781ZM326.195 177.587H327.923V184.163L334.739 176.819V187.547H333.011V180.899L326.195 188.243V177.587ZM338.007 177.587H339.735V184.163L346.551 176.819V187.547H344.823V180.899L338.007 188.243V177.587ZM338.871 173.291L340.311 172.739C340.599 173.699 341.279 174.179 342.351 174.179C343.423 174.179 344.103 173.699 344.391 172.739L345.831 173.291C345.575 174.011 345.135 174.579 344.511 174.995C343.903 175.411 343.183 175.619 342.351 175.619C341.519 175.619 340.791 175.411 340.167 174.995C339.559 174.579 339.127 174.011 338.871 173.291ZM350.084 187.427C349.844 187.187 349.724 186.907 349.724 186.587C349.724 186.267 349.844 185.987 350.084 185.747C350.324 185.507 350.604 185.387 350.924 185.387C351.244 185.387 351.524 185.507 351.764 185.747C352.004 185.987 352.124 186.267 352.124 186.587C352.124 186.907 352.004 187.187 351.764 187.427C351.524 187.667 351.244 187.787 350.924 187.787C350.604 187.787 350.324 187.667 350.084 187.427ZM369.618 171.539V173.219H363.09V177.971H369.426V179.651H363.09V185.867H369.618V187.547H361.314V171.539H369.618ZM380.26 178.307V180.371C379.476 179.379 378.436 178.883 377.14 178.883C376.164 178.883 375.332 179.219 374.644 179.891C373.956 180.547 373.612 181.451 373.612 182.603C373.612 183.755 373.956 184.659 374.644 185.315C375.332 185.971 376.156 186.299 377.116 186.299C378.396 186.299 379.468 185.779 380.332 184.739V186.803C379.388 187.491 378.332 187.835 377.164 187.835C375.612 187.835 374.332 187.347 373.324 186.371C372.332 185.379 371.836 184.131 371.836 182.627C371.836 181.107 372.34 179.851 373.348 178.859C374.356 177.851 375.628 177.347 377.164 177.347C378.316 177.347 379.348 177.667 380.26 178.307ZM390.52 177.587V187.547H388.792V179.171H385.24V183.659C385.24 184.955 384.984 185.915 384.472 186.539C383.896 187.243 383.096 187.595 382.072 187.595C381.944 187.595 381.768 187.579 381.544 187.547V185.963C381.704 185.995 381.832 186.011 381.928 186.011C382.488 186.011 382.904 185.795 383.176 185.363C383.4 185.011 383.512 184.443 383.512 183.659V177.587H390.52ZM393.789 177.587H395.517V184.163L402.333 176.819V187.547H400.605V180.899L393.789 188.243V177.587ZM411.203 177.587H414.971C415.883 177.587 416.579 177.779 417.059 178.163C417.635 178.627 417.923 179.251 417.923 180.035C417.923 180.899 417.563 181.563 416.843 182.027C417.339 182.155 417.755 182.379 418.091 182.699C418.619 183.211 418.883 183.851 418.883 184.619C418.883 185.579 418.539 186.331 417.851 186.875C417.259 187.323 416.475 187.547 415.499 187.547H411.203V177.587ZM412.931 181.643H414.755C415.219 181.643 415.587 181.547 415.859 181.355C416.179 181.115 416.339 180.771 416.339 180.323C416.339 179.923 416.179 179.603 415.859 179.363C415.619 179.203 415.155 179.123 414.467 179.123H412.931V181.643ZM412.931 186.011H415.067C415.803 186.011 416.323 185.899 416.627 185.675C417.011 185.387 417.203 185.019 417.203 184.571C417.203 184.091 417.035 183.715 416.699 183.443C416.395 183.203 415.875 183.083 415.139 183.083H412.931V186.011ZM429.147 179.003V177.587H430.875V187.547H429.147V186.155C428.283 187.275 427.147 187.835 425.739 187.835C424.395 187.835 423.251 187.371 422.307 186.443C421.363 185.515 420.891 184.219 420.891 182.555C420.891 180.923 421.355 179.651 422.283 178.739C423.227 177.811 424.379 177.347 425.739 177.347C427.179 177.347 428.315 177.899 429.147 179.003ZM425.931 178.883C425.019 178.883 424.243 179.211 423.603 179.867C422.979 180.507 422.667 181.403 422.667 182.555C422.667 183.659 422.955 184.563 423.531 185.267C424.123 185.955 424.923 186.299 425.931 186.299C426.939 186.299 427.739 185.939 428.331 185.219C428.939 184.499 429.243 183.619 429.243 182.579C429.243 181.395 428.907 180.483 428.235 179.843C427.563 179.203 426.795 178.883 425.931 178.883ZM432.996 187.547L435.396 176.819L439.524 184.931L443.556 176.819L445.956 187.547H444.18L442.86 181.379L439.476 188.243L436.044 181.379L434.772 187.547H432.996ZM458.999 187.547V183.635C458.055 183.779 457.271 183.851 456.647 183.851C455.559 183.851 454.751 183.611 454.223 183.131C453.663 182.635 453.383 181.819 453.383 180.683V177.587H455.111V180.443C455.111 180.987 455.183 181.379 455.327 181.619C455.551 182.051 456.055 182.267 456.839 182.267C457.543 182.267 458.263 182.195 458.999 182.051V177.587H460.727V187.547H458.999ZM470.512 179.171H467.392V187.547H465.664V179.171H462.544V177.587H470.512V179.171ZM480.517 186.347C479.525 187.339 478.269 187.835 476.749 187.835C475.229 187.835 473.965 187.339 472.957 186.347C471.965 185.355 471.469 184.107 471.469 182.603C471.469 181.083 471.965 179.827 472.957 178.835C473.965 177.843 475.229 177.347 476.749 177.347C478.269 177.347 479.525 177.843 480.517 178.835C481.525 179.827 482.029 181.083 482.029 182.603C482.029 184.107 481.525 185.355 480.517 186.347ZM479.221 179.867C478.549 179.211 477.725 178.883 476.749 178.883C475.773 178.883 474.941 179.219 474.253 179.891C473.581 180.547 473.245 181.451 473.245 182.603C473.245 183.755 473.589 184.659 474.277 185.315C474.965 185.971 475.789 186.299 476.749 186.299C477.709 186.299 478.533 185.971 479.221 185.315C479.909 184.659 480.253 183.755 480.253 182.603C480.253 181.435 479.909 180.523 479.221 179.867ZM484.247 183.323V181.547H489.527V183.323H484.247ZM499.902 179.171H496.782V187.547H495.054V179.171H491.934V177.587H499.902V179.171ZM509.908 186.347C508.916 187.339 507.66 187.835 506.14 187.835C504.62 187.835 503.356 187.339 502.348 186.347C501.356 185.355 500.86 184.107 500.86 182.603C500.86 181.083 501.356 179.827 502.348 178.835C503.356 177.843 504.62 177.347 506.14 177.347C507.66 177.347 508.916 177.843 509.908 178.835C510.916 179.827 511.42 181.083 511.42 182.603C511.42 184.107 510.916 185.355 509.908 186.347ZM508.612 179.867C507.94 179.211 507.116 178.883 506.14 178.883C505.164 178.883 504.332 179.219 503.644 179.891C502.972 180.547 502.636 181.451 502.636 182.603C502.636 183.755 502.98 184.659 503.668 185.315C504.356 185.971 505.18 186.299 506.14 186.299C507.1 186.299 507.924 185.971 508.612 185.315C509.3 184.659 509.644 183.755 509.644 182.603C509.644 181.435 509.3 180.523 508.612 179.867ZM62.6166 208.587H70.6326V218.547H68.9046V210.171H64.3446V218.547H62.6166V208.587ZM75.6181 217.155V224.067H73.8901V208.587H75.6181V209.979C76.4981 208.891 77.6341 208.347 79.0261 208.347C80.5141 208.347 81.6901 208.875 82.5541 209.931C83.4341 210.971 83.8741 212.203 83.8741 213.627C83.8741 215.067 83.4421 216.299 82.5781 217.323C81.7141 218.331 80.5541 218.835 79.0981 218.835C77.6421 218.835 76.4821 218.275 75.6181 217.155ZM78.8581 217.299C79.8341 217.299 80.6181 216.947 81.2101 216.243C81.8021 215.523 82.0981 214.651 82.0981 213.627C82.0981 212.475 81.7701 211.563 81.1141 210.891C80.4581 210.219 79.6981 209.883 78.8341 209.883C77.9701 209.883 77.2021 210.219 76.5301 210.891C75.8581 211.563 75.5221 212.467 75.5221 213.603C75.5221 214.643 75.8261 215.523 76.4341 216.243C77.0581 216.947 77.8661 217.299 78.8581 217.299ZM86.5229 208.587H88.2509V215.163L95.0669 207.819V218.547H93.3389V211.899L86.5229 219.243V208.587ZM98.3354 218.547V208.587H104.239V210.171H100.063V218.547H98.3354ZM113.278 208.587V218.547H111.55V210.171H107.998V214.659C107.998 215.955 107.742 216.915 107.23 217.539C106.654 218.243 105.854 218.595 104.83 218.595C104.702 218.595 104.526 218.579 104.302 218.547V216.963C104.462 216.995 104.59 217.011 104.686 217.011C105.246 217.011 105.662 216.795 105.934 216.363C106.158 216.011 106.27 215.443 106.27 214.659V208.587H113.278ZM115.394 218.547L118.49 214.443C118.394 214.443 118.258 214.427 118.082 214.395C117.922 214.363 117.682 214.283 117.362 214.155C117.042 214.027 116.778 213.859 116.57 213.651C116.042 213.155 115.778 212.491 115.778 211.659C115.778 210.715 116.074 209.971 116.666 209.427C117.258 208.867 118.234 208.587 119.594 208.587H123.074V218.547H121.346V214.539H120.29L117.458 218.547H115.394ZM121.346 213.099V210.123H119.738C118.986 210.123 118.466 210.211 118.178 210.387C117.762 210.659 117.554 211.067 117.554 211.611C117.554 212.155 117.762 212.555 118.178 212.811C118.482 213.003 118.994 213.099 119.714 213.099H121.346ZM126.343 218.547V208.587H128.071V212.667H132.775V208.587H134.503V218.547H132.775V214.251H128.071V218.547H126.343ZM137.733 224.067L140.901 217.611L136.317 208.587H138.285L141.813 215.715L145.053 208.587H146.973L139.653 224.067H137.733ZM156.098 208.587V218.547H154.37V210.171H150.818V214.659C150.818 215.955 150.562 216.915 150.05 217.539C149.474 218.243 148.674 218.595 147.65 218.595C147.522 218.595 147.346 218.579 147.122 218.547V216.963C147.282 216.995 147.41 217.011 147.506 217.011C148.066 217.011 148.482 216.795 148.754 216.363C148.978 216.011 149.09 215.443 149.09 214.659V208.587H156.098ZM167.791 217.347C166.799 218.339 165.543 218.835 164.023 218.835C162.503 218.835 161.239 218.339 160.231 217.347C159.239 216.355 158.743 215.107 158.743 213.603C158.743 212.083 159.239 210.827 160.231 209.835C161.239 208.843 162.503 208.347 164.023 208.347C165.543 208.347 166.799 208.843 167.791 209.835C168.799 210.827 169.303 212.083 169.303 213.603C169.303 215.107 168.799 216.355 167.791 217.347ZM166.495 210.867C165.823 210.211 164.999 209.883 164.023 209.883C163.047 209.883 162.215 210.219 161.527 210.891C160.855 211.547 160.519 212.451 160.519 213.603C160.519 214.755 160.863 215.659 161.551 216.315C162.239 216.971 163.063 217.299 164.023 217.299C164.983 217.299 165.807 216.971 166.495 216.315C167.183 215.659 167.527 214.755 167.527 213.603C167.527 212.435 167.183 211.523 166.495 210.867ZM179.753 209.307V211.371C178.969 210.379 177.929 209.883 176.633 209.883C175.657 209.883 174.825 210.219 174.137 210.891C173.449 211.547 173.105 212.451 173.105 213.603C173.105 214.755 173.449 215.659 174.137 216.315C174.825 216.971 175.649 217.299 176.609 217.299C177.889 217.299 178.961 216.779 179.825 215.739V217.803C178.881 218.491 177.825 218.835 176.657 218.835C175.105 218.835 173.825 218.347 172.817 217.371C171.825 216.379 171.329 215.131 171.329 213.627C171.329 212.107 171.833 210.851 172.841 209.859C173.849 208.851 175.121 208.347 176.657 208.347C177.809 208.347 178.841 208.667 179.753 209.307ZM182.476 218.547V208.587H184.204V212.403H185.98C187.356 212.403 188.364 212.731 189.004 213.387C189.516 213.899 189.772 214.595 189.772 215.475C189.772 216.403 189.476 217.147 188.884 217.707C188.292 218.267 187.316 218.547 185.956 218.547H182.476ZM184.204 217.011H185.812C186.532 217.011 187.044 216.923 187.348 216.747C187.78 216.459 187.996 216.035 187.996 215.475C187.996 214.899 187.788 214.483 187.372 214.227C187.084 214.035 186.572 213.939 185.836 213.939H184.204V217.011ZM191.029 221.739L192.997 216.195L194.581 216.771L192.157 222.195L191.029 221.739ZM204.273 218.547V208.587H206.001V212.667H210.705V208.587H212.433V218.547H210.705V214.251H206.001V218.547H204.273ZM223.079 215.211L224.519 216.003C224.183 216.643 223.775 217.179 223.295 217.611C222.383 218.427 221.279 218.835 219.983 218.835C218.639 218.835 217.479 218.403 216.503 217.539C215.543 216.659 215.063 215.355 215.063 213.627C215.063 212.107 215.495 210.851 216.359 209.859C217.239 208.851 218.415 208.347 219.887 208.347C221.551 208.347 222.807 208.955 223.655 210.171C224.327 211.131 224.639 212.379 224.591 213.915H216.839C216.855 214.923 217.167 215.739 217.775 216.363C218.383 216.987 219.127 217.299 220.007 217.299C220.791 217.299 221.471 217.059 222.047 216.579C222.495 216.195 222.839 215.739 223.079 215.211ZM216.959 212.475H222.815C222.671 211.691 222.327 211.067 221.783 210.603C221.255 210.123 220.623 209.883 219.887 209.883C219.167 209.883 218.527 210.131 217.967 210.627C217.423 211.107 217.087 211.723 216.959 212.475ZM235.666 217.347C234.674 218.339 233.418 218.835 231.898 218.835C230.378 218.835 229.114 218.339 228.106 217.347C227.114 216.355 226.618 215.107 226.618 213.603C226.618 212.083 227.114 210.827 228.106 209.835C229.114 208.843 230.378 208.347 231.898 208.347C233.418 208.347 234.674 208.843 235.666 209.835C236.674 210.827 237.178 212.083 237.178 213.603C237.178 215.107 236.674 216.355 235.666 217.347ZM234.37 210.867C233.698 210.211 232.874 209.883 231.898 209.883C230.922 209.883 230.09 210.219 229.402 210.891C228.73 211.547 228.394 212.451 228.394 213.603C228.394 214.755 228.738 215.659 229.426 216.315C230.114 216.971 230.938 217.299 231.898 217.299C232.858 217.299 233.682 216.971 234.37 216.315C235.058 215.659 235.402 214.755 235.402 213.603C235.402 212.435 235.058 211.523 234.37 210.867ZM247.508 201.747H249.428C249.252 202.339 248.948 202.843 248.516 203.259C248.1 203.659 247.716 203.931 247.364 204.075C247.028 204.219 246.628 204.347 246.164 204.459C246.084 204.475 245.892 204.523 245.588 204.603C245.284 204.667 245.052 204.723 244.892 204.771C244.732 204.819 244.524 204.883 244.268 204.963C244.012 205.043 243.78 205.139 243.572 205.251C243.364 205.363 243.172 205.483 242.996 205.611C242.388 206.075 241.892 206.723 241.508 207.555C241.14 208.371 240.94 209.243 240.908 210.171H240.956C241.676 208.955 242.884 208.347 244.58 208.347C246.068 208.347 247.3 208.851 248.276 209.859C249.268 210.867 249.764 212.115 249.764 213.603C249.764 215.107 249.26 216.355 248.252 217.347C247.244 218.339 245.932 218.835 244.316 218.835C242.924 218.835 241.78 218.419 240.884 217.587C239.764 216.563 239.204 214.851 239.204 212.451C239.204 208.275 240.148 205.539 242.036 204.243C242.18 204.147 242.332 204.059 242.492 203.979C242.652 203.883 242.82 203.803 242.996 203.739C243.188 203.659 243.348 203.595 243.476 203.547C243.604 203.483 243.78 203.427 244.004 203.379C244.244 203.315 244.404 203.275 244.484 203.259C244.58 203.227 244.756 203.187 245.012 203.139C245.284 203.075 245.452 203.035 245.516 203.019C246.156 202.875 246.62 202.707 246.908 202.515C247.196 202.307 247.396 202.051 247.508 201.747ZM246.956 210.867C246.284 210.211 245.46 209.883 244.484 209.883C243.508 209.883 242.676 210.219 241.988 210.891C241.316 211.547 240.98 212.451 240.98 213.603C240.98 214.755 241.324 215.659 242.012 216.315C242.7 216.971 243.524 217.299 244.484 217.299C245.444 217.299 246.268 216.971 246.956 216.315C247.644 215.659 247.988 214.755 247.988 213.603C247.988 212.435 247.644 211.523 246.956 210.867ZM250.739 218.547L254.987 213.219L251.363 208.587H253.475L256.043 211.971L258.659 208.587H260.771L257.123 213.243L261.251 218.547H259.139L255.995 214.491L252.851 218.547H250.739ZM271.267 217.347C270.275 218.339 269.019 218.835 267.499 218.835C265.979 218.835 264.715 218.339 263.707 217.347C262.715 216.355 262.219 215.107 262.219 213.603C262.219 212.083 262.715 210.827 263.707 209.835C264.715 208.843 265.979 208.347 267.499 208.347C269.019 208.347 270.275 208.843 271.267 209.835C272.275 210.827 272.779 212.083 272.779 213.603C272.779 215.107 272.275 216.355 271.267 217.347ZM269.971 210.867C269.299 210.211 268.475 209.883 267.499 209.883C266.523 209.883 265.691 210.219 265.003 210.891C264.331 211.547 263.995 212.451 263.995 213.603C263.995 214.755 264.339 215.659 265.027 216.315C265.715 216.971 266.539 217.299 267.499 217.299C268.459 217.299 269.283 216.971 269.971 216.315C270.659 215.659 271.003 214.755 271.003 213.603C271.003 212.435 270.659 211.523 269.971 210.867ZM276.149 208.587H283.157V216.963H284.645V221.187H283.061V218.547H275.477V221.187H273.893V216.963C274.725 216.947 275.341 216.515 275.741 215.667C276.013 215.107 276.149 214.227 276.149 213.027V208.587ZM281.429 216.963V210.171H277.877V213.915C277.877 215.243 277.477 216.259 276.677 216.963H281.429ZM286.468 208.587H288.196V215.163L295.012 207.819V218.547H293.284V211.899L286.468 219.243V208.587ZM297.129 218.547L299.529 207.819L303.657 215.931L307.689 207.819L310.089 218.547H308.313L306.993 212.379L303.609 219.243L300.177 212.379L298.905 218.547H297.129ZM320.627 217.347C319.635 218.339 318.379 218.835 316.859 218.835C315.339 218.835 314.075 218.339 313.067 217.347C312.075 216.355 311.579 215.107 311.579 213.603C311.579 212.083 312.075 210.827 313.067 209.835C314.075 208.843 315.339 208.347 316.859 208.347C318.379 208.347 319.635 208.843 320.627 209.835C321.635 210.827 322.139 212.083 322.139 213.603C322.139 215.107 321.635 216.355 320.627 217.347ZM319.331 210.867C318.659 210.211 317.835 209.883 316.859 209.883C315.883 209.883 315.051 210.219 314.363 210.891C313.691 211.547 313.355 212.451 313.355 213.603C313.355 214.755 313.699 215.659 314.387 216.315C315.075 216.971 315.899 217.299 316.859 217.299C317.819 217.299 318.643 216.971 319.331 216.315C320.019 215.659 320.363 214.755 320.363 213.603C320.363 212.435 320.019 211.523 319.331 210.867ZM330.39 208.587H332.118V212.667L336.15 208.587H338.262L333.942 213.027L338.79 218.547H336.534L332.646 214.179L332.118 214.683V218.547H330.39V208.587ZM348.309 208.587V218.547H346.581V210.171H343.029V214.659C343.029 215.955 342.773 216.915 342.261 217.539C341.685 218.243 340.885 218.595 339.861 218.595C339.733 218.595 339.557 218.579 339.333 218.547V216.963C339.493 216.995 339.621 217.011 339.717 217.011C340.277 217.011 340.693 216.795 340.965 216.363C341.189 216.011 341.301 215.443 341.301 214.659V208.587H348.309ZM351.578 208.587H353.306V215.163L360.122 207.819V218.547H358.394V211.899L351.578 219.243V208.587ZM363.39 208.587H365.118V212.667L369.15 208.587H371.262L366.942 213.027L371.79 218.547H369.534L365.646 214.179L365.118 214.683V218.547H363.39V208.587ZM373.515 218.547V208.587H375.243V212.667H379.947V208.587H381.675V218.547H379.947V214.251H375.243V218.547H373.515ZM384.905 224.067L388.073 217.611L383.489 208.587H385.457L388.985 215.715L392.225 208.587H394.145L386.825 224.067H384.905ZM403.012 210.171H399.892V218.547H398.164V210.171H395.044V208.587H403.012V210.171ZM404.828 218.547V208.587H406.556V212.403H408.332C409.708 212.403 410.716 212.731 411.356 213.387C411.868 213.899 412.124 214.595 412.124 215.475C412.124 216.403 411.828 217.147 411.236 217.707C410.644 218.267 409.668 218.547 408.308 218.547H404.828ZM406.556 217.011H408.164C408.884 217.011 409.396 216.923 409.7 216.747C410.132 216.459 410.348 216.035 410.348 215.475C410.348 214.899 410.14 214.483 409.724 214.227C409.436 214.035 408.924 213.939 408.188 213.939H406.556V217.011ZM420.039 218.547V208.587H421.767V212.667H426.471V208.587H428.199V218.547H426.471V214.251H421.767V218.547H420.039ZM439.085 210.003V208.587H440.813V218.547H439.085V217.155C438.221 218.275 437.085 218.835 435.677 218.835C434.333 218.835 433.189 218.371 432.245 217.443C431.301 216.515 430.829 215.219 430.829 213.555C430.829 211.923 431.293 210.651 432.221 209.739C433.165 208.811 434.317 208.347 435.677 208.347C437.117 208.347 438.253 208.899 439.085 210.003ZM435.869 209.883C434.957 209.883 434.181 210.211 433.541 210.867C432.917 211.507 432.605 212.403 432.605 213.555C432.605 214.659 432.893 215.563 433.469 216.267C434.061 216.955 434.861 217.299 435.869 217.299C436.877 217.299 437.677 216.939 438.269 216.219C438.877 215.499 439.181 214.619 439.181 213.579C439.181 212.395 438.845 211.483 438.173 210.843C437.501 210.203 436.733 209.883 435.869 209.883ZM449.687 208.587H457.703V218.547H455.975V210.171H451.415V218.547H449.687V208.587ZM469.384 217.347C468.392 218.339 467.136 218.835 465.616 218.835C464.096 218.835 462.832 218.339 461.824 217.347C460.832 216.355 460.336 215.107 460.336 213.603C460.336 212.083 460.832 210.827 461.824 209.835C462.832 208.843 464.096 208.347 465.616 208.347C467.136 208.347 468.392 208.843 469.384 209.835C470.392 210.827 470.896 212.083 470.896 213.603C470.896 215.107 470.392 216.355 469.384 217.347ZM468.088 210.867C467.416 210.211 466.592 209.883 465.616 209.883C464.64 209.883 463.808 210.219 463.12 210.891C462.448 211.547 462.112 212.451 462.112 213.603C462.112 214.755 462.456 215.659 463.144 216.315C463.832 216.971 464.656 217.299 465.616 217.299C466.576 217.299 467.4 216.971 468.088 216.315C468.776 215.659 469.12 214.755 469.12 213.603C469.12 212.435 468.776 211.523 468.088 210.867ZM474.842 211.131L473.642 210.147C474.026 209.587 474.45 209.171 474.914 208.899C475.538 208.531 476.266 208.347 477.098 208.347C478.106 208.347 478.89 208.579 479.45 209.043C480.026 209.539 480.314 210.171 480.314 210.939C480.314 211.867 479.938 212.563 479.186 213.027C479.666 213.139 480.05 213.355 480.338 213.675C480.802 214.171 481.034 214.779 481.034 215.499C481.034 216.571 480.602 217.427 479.738 218.067C479.034 218.579 478.09 218.835 476.906 218.835C475.85 218.835 474.962 218.555 474.242 217.995C473.698 217.595 473.258 217.027 472.922 216.291L474.41 215.667C474.586 216.115 474.882 216.491 475.298 216.795C475.746 217.131 476.29 217.299 476.93 217.299C477.682 217.299 478.242 217.171 478.61 216.915C479.074 216.611 479.306 216.147 479.306 215.523C479.306 215.011 479.106 214.627 478.706 214.371C478.37 214.147 477.826 214.035 477.074 214.035H476.066V212.451H476.906C477.514 212.451 477.946 212.363 478.202 212.187C478.554 211.963 478.73 211.659 478.73 211.275C478.73 210.827 478.586 210.483 478.298 210.243C478.026 210.003 477.602 209.883 477.026 209.883C476.53 209.883 476.074 210.011 475.658 210.267C475.306 210.491 475.034 210.779 474.842 211.131ZM483.671 208.587H485.399V215.163L492.215 207.819V218.547H490.487V211.899L483.671 219.243V208.587ZM495.484 218.547V208.587H497.212V216.963H501.676V208.587H503.404V216.963H505.036V221.187H503.452V218.547H495.484ZM506.851 208.587H508.579V215.163L515.395 207.819V218.547H513.667V211.899L506.851 219.243V208.587ZM520.392 212.667H522.192C522.352 211.547 522.8 210.603 523.536 209.835C524.48 208.843 525.736 208.347 527.304 208.347C528.84 208.347 530.104 208.843 531.096 209.835C532.088 210.827 532.584 212.083 532.584 213.603C532.584 215.107 532.08 216.355 531.072 217.347C530.08 218.339 528.824 218.835 527.304 218.835C525.56 218.835 524.192 218.211 523.2 216.963C522.56 216.163 522.192 215.259 522.096 214.251H520.392V218.547H518.664V208.587H520.392V212.667ZM527.304 209.883C526.344 209.883 525.528 210.219 524.856 210.891C524.2 211.547 523.872 212.451 523.872 213.603C523.872 214.771 524.208 215.683 524.88 216.339C525.552 216.979 526.36 217.299 527.304 217.299C528.264 217.299 529.088 216.971 529.776 216.315C530.464 215.659 530.808 214.755 530.808 213.603C530.808 212.451 530.464 211.547 529.776 210.891C529.104 210.219 528.28 209.883 527.304 209.883ZM540.835 208.587H542.563V215.163L549.379 207.819V218.547H547.651V211.899L540.835 219.243V208.587ZM79.2525 242.131L78.0525 241.147C78.4365 240.587 78.8605 240.171 79.3245 239.899C79.9485 239.531 80.6765 239.347 81.5085 239.347C82.5165 239.347 83.3005 239.579 83.8605 240.043C84.4365 240.539 84.7245 241.171 84.7245 241.939C84.7245 242.867 84.3485 243.563 83.5965 244.027C84.0765 244.139 84.4605 244.355 84.7485 244.675C85.2125 245.171 85.4445 245.779 85.4445 246.499C85.4445 247.571 85.0125 248.427 84.1485 249.067C83.4445 249.579 82.5005 249.835 81.3165 249.835C80.2605 249.835 79.3725 249.555 78.6525 248.995C78.1085 248.595 77.6685 248.027 77.3325 247.291L78.8205 246.667C78.9965 247.115 79.2925 247.491 79.7085 247.795C80.1565 248.131 80.7005 248.299 81.3405 248.299C82.0925 248.299 82.6525 248.171 83.0205 247.915C83.4845 247.611 83.7165 247.147 83.7165 246.523C83.7165 246.011 83.5165 245.627 83.1165 245.371C82.7805 245.147 82.2365 245.035 81.4845 245.035H80.4765V243.451H81.3165C81.9245 243.451 82.3565 243.363 82.6125 243.187C82.9645 242.963 83.1405 242.659 83.1405 242.275C83.1405 241.827 82.9965 241.483 82.7085 241.243C82.4365 241.003 82.0125 240.883 81.4365 240.883C80.9405 240.883 80.4845 241.011 80.0685 241.267C79.7165 241.491 79.4445 241.779 79.2525 242.131ZM95.7135 241.003V239.587H97.4415V249.547H95.7135V248.155C94.8495 249.275 93.7135 249.835 92.3055 249.835C90.9615 249.835 89.8175 249.371 88.8735 248.443C87.9295 247.515 87.4575 246.219 87.4575 244.555C87.4575 242.923 87.9215 241.651 88.8495 240.739C89.7935 239.811 90.9455 239.347 92.3055 239.347C93.7455 239.347 94.8815 239.899 95.7135 241.003ZM92.4975 240.883C91.5855 240.883 90.8095 241.211 90.1695 241.867C89.5455 242.507 89.2335 243.403 89.2335 244.555C89.2335 245.659 89.5215 246.563 90.0975 247.267C90.6895 247.955 91.4895 248.299 92.4975 248.299C93.5055 248.299 94.3055 247.939 94.8975 247.219C95.5055 246.499 95.8095 245.619 95.8095 244.579C95.8095 243.395 95.4735 242.483 94.8015 241.843C94.1295 241.203 93.3615 240.883 92.4975 240.883ZM100.714 239.587H102.442V243.667L106.474 239.587H108.586L104.266 244.027L109.114 249.547H106.858L102.97 245.179L102.442 245.683V249.547H100.714V239.587ZM112.567 248.155V255.067H110.839V239.587H112.567V240.979C113.447 239.891 114.583 239.347 115.975 239.347C117.463 239.347 118.639 239.875 119.503 240.931C120.383 241.971 120.823 243.203 120.823 244.627C120.823 246.067 120.391 247.299 119.527 248.323C118.663 249.331 117.503 249.835 116.047 249.835C114.591 249.835 113.431 249.275 112.567 248.155ZM115.807 248.299C116.783 248.299 117.567 247.947 118.159 247.243C118.751 246.523 119.047 245.651 119.047 244.627C119.047 243.475 118.719 242.563 118.063 241.891C117.407 241.219 116.647 240.883 115.783 240.883C114.919 240.883 114.151 241.219 113.479 241.891C112.807 242.563 112.471 243.467 112.471 244.603C112.471 245.643 112.775 246.523 113.383 247.243C114.007 247.947 114.815 248.299 115.807 248.299ZM130.864 246.211L132.304 247.003C131.968 247.643 131.56 248.179 131.08 248.611C130.168 249.427 129.064 249.835 127.768 249.835C126.424 249.835 125.264 249.403 124.288 248.539C123.328 247.659 122.848 246.355 122.848 244.627C122.848 243.107 123.28 241.851 124.144 240.859C125.024 239.851 126.2 239.347 127.672 239.347C129.336 239.347 130.592 239.955 131.44 241.171C132.112 242.131 132.424 243.379 132.376 244.915H124.624C124.64 245.923 124.952 246.739 125.56 247.363C126.168 247.987 126.912 248.299 127.792 248.299C128.576 248.299 129.256 248.059 129.832 247.579C130.28 247.195 130.624 246.739 130.864 246.211ZM124.744 243.475H130.6C130.456 242.691 130.112 242.067 129.568 241.603C129.04 241.123 128.408 240.883 127.672 240.883C126.952 240.883 126.312 241.131 125.752 241.627C125.208 242.107 124.872 242.723 124.744 243.475ZM135.027 239.587H143.043V249.547H141.315V241.171H136.755V249.547H135.027V239.587ZM146.3 239.587H148.028V246.163L154.844 238.819V249.547H153.116V242.899L146.3 250.243V239.587ZM164.641 241.171H161.521V249.547H159.793V241.171H156.673V239.587H164.641V241.171ZM166.456 249.547V239.587H168.184V243.403H169.96C171.336 243.403 172.344 243.731 172.984 244.387C173.496 244.899 173.752 245.595 173.752 246.475C173.752 247.403 173.456 248.147 172.864 248.707C172.272 249.267 171.296 249.547 169.936 249.547H166.456ZM168.184 248.011H169.792C170.512 248.011 171.024 247.923 171.328 247.747C171.76 247.459 171.976 247.035 171.976 246.475C171.976 245.899 171.768 245.483 171.352 245.227C171.064 245.035 170.552 244.939 169.816 244.939H168.184V248.011ZM181.667 239.587H189.683V249.547H187.955V241.171H183.395V249.547H181.667V239.587ZM201.365 248.347C200.373 249.339 199.117 249.835 197.597 249.835C196.077 249.835 194.813 249.339 193.805 248.347C192.813 247.355 192.317 246.107 192.317 244.603C192.317 243.083 192.813 241.827 193.805 240.835C194.813 239.843 196.077 239.347 197.597 239.347C199.117 239.347 200.373 239.843 201.365 240.835C202.373 241.827 202.877 243.083 202.877 244.603C202.877 246.107 202.373 247.355 201.365 248.347ZM200.069 241.867C199.397 241.211 198.573 240.883 197.597 240.883C196.621 240.883 195.789 241.219 195.101 241.891C194.429 242.547 194.093 243.451 194.093 244.603C194.093 245.755 194.437 246.659 195.125 247.315C195.813 247.971 196.637 248.299 197.597 248.299C198.557 248.299 199.381 247.971 200.069 247.315C200.757 246.659 201.101 245.755 201.101 244.603C201.101 243.435 200.757 242.523 200.069 241.867ZM206.247 239.587H213.255V247.963H214.743V252.187H213.159V249.547H205.575V252.187H203.991V247.963C204.823 247.947 205.439 247.515 205.839 246.667C206.111 246.107 206.247 245.227 206.247 244.027V239.587ZM211.527 247.963V241.171H207.975V244.915C207.975 246.243 207.575 247.259 206.775 247.963H211.527ZM224.198 241.003V239.587H225.926V249.547H224.198V248.155C223.334 249.275 222.198 249.835 220.79 249.835C219.446 249.835 218.302 249.371 217.358 248.443C216.414 247.515 215.942 246.219 215.942 244.555C215.942 242.923 216.406 241.651 217.334 240.739C218.278 239.811 219.43 239.347 220.79 239.347C222.23 239.347 223.366 239.899 224.198 241.003ZM220.982 240.883C220.07 240.883 219.294 241.211 218.654 241.867C218.03 242.507 217.718 243.403 217.718 244.555C217.718 245.659 218.006 246.563 218.582 247.267C219.174 247.955 219.974 248.299 220.982 248.299C221.99 248.299 222.79 247.939 223.382 247.219C223.99 246.499 224.294 245.619 224.294 244.579C224.294 243.395 223.958 242.483 223.286 241.843C222.614 241.203 221.846 240.883 220.982 240.883ZM230.927 248.155V255.067H229.199V239.587H230.927V240.979C231.807 239.891 232.943 239.347 234.335 239.347C235.823 239.347 236.999 239.875 237.863 240.931C238.743 241.971 239.183 243.203 239.183 244.627C239.183 246.067 238.751 247.299 237.887 248.323C237.023 249.331 235.863 249.835 234.407 249.835C232.951 249.835 231.791 249.275 230.927 248.155ZM234.167 248.299C235.143 248.299 235.927 247.947 236.519 247.243C237.111 246.523 237.407 245.651 237.407 244.627C237.407 243.475 237.079 242.563 236.423 241.891C235.767 241.219 235.007 240.883 234.143 240.883C233.279 240.883 232.511 241.219 231.839 241.891C231.167 242.563 230.831 243.467 230.831 244.603C230.831 245.643 231.135 246.523 231.743 247.243C232.367 247.947 233.175 248.299 234.167 248.299ZM250.255 248.347C249.263 249.339 248.007 249.835 246.487 249.835C244.967 249.835 243.703 249.339 242.695 248.347C241.703 247.355 241.207 246.107 241.207 244.603C241.207 243.083 241.703 241.827 242.695 240.835C243.703 239.843 244.967 239.347 246.487 239.347C248.007 239.347 249.263 239.843 250.255 240.835C251.263 241.827 251.767 243.083 251.767 244.603C251.767 246.107 251.263 247.355 250.255 248.347ZM248.959 241.867C248.287 241.211 247.463 240.883 246.487 240.883C245.511 240.883 244.679 241.219 243.991 241.891C243.319 242.547 242.983 243.451 242.983 244.603C242.983 245.755 243.327 246.659 244.015 247.315C244.703 247.971 245.527 248.299 246.487 248.299C247.447 248.299 248.271 247.971 248.959 247.315C249.647 246.659 249.991 245.755 249.991 244.603C249.991 243.435 249.647 242.523 248.959 241.867ZM254.417 239.587H256.145V243.667L260.177 239.587H262.289L257.969 244.027L262.817 249.547H260.561L256.673 245.179L256.145 245.683V249.547H254.417V239.587ZM271.44 242.131L270.24 241.147C270.624 240.587 271.048 240.171 271.512 239.899C272.136 239.531 272.864 239.347 273.696 239.347C274.704 239.347 275.488 239.579 276.048 240.043C276.624 240.539 276.912 241.171 276.912 241.939C276.912 242.867 276.536 243.563 275.784 244.027C276.264 244.139 276.648 244.355 276.936 244.675C277.4 245.171 277.632 245.779 277.632 246.499C277.632 247.571 277.2 248.427 276.336 249.067C275.632 249.579 274.688 249.835 273.504 249.835C272.448 249.835 271.56 249.555 270.84 248.995C270.296 248.595 269.856 248.027 269.52 247.291L271.008 246.667C271.184 247.115 271.48 247.491 271.896 247.795C272.344 248.131 272.888 248.299 273.528 248.299C274.28 248.299 274.84 248.171 275.208 247.915C275.672 247.611 275.904 247.147 275.904 246.523C275.904 246.011 275.704 245.627 275.304 245.371C274.968 245.147 274.424 245.035 273.672 245.035H272.664V243.451H273.504C274.112 243.451 274.544 243.363 274.8 243.187C275.152 242.963 275.328 242.659 275.328 242.275C275.328 241.827 275.184 241.483 274.896 241.243C274.624 241.003 274.2 240.883 273.624 240.883C273.128 240.883 272.672 241.011 272.256 241.267C271.904 241.491 271.632 241.779 271.44 242.131ZM287.901 241.003V239.587H289.629V249.547H287.901V248.155C287.037 249.275 285.901 249.835 284.493 249.835C283.149 249.835 282.005 249.371 281.061 248.443C280.117 247.515 279.645 246.219 279.645 244.555C279.645 242.923 280.109 241.651 281.037 240.739C281.981 239.811 283.133 239.347 284.493 239.347C285.933 239.347 287.069 239.899 287.901 241.003ZM284.685 240.883C283.773 240.883 282.997 241.211 282.357 241.867C281.733 242.507 281.421 243.403 281.421 244.555C281.421 245.659 281.709 246.563 282.285 247.267C282.877 247.955 283.677 248.299 284.685 248.299C285.693 248.299 286.493 247.939 287.085 247.219C287.693 246.499 287.997 245.619 287.997 244.579C287.997 243.395 287.661 242.483 286.989 241.843C286.317 241.203 285.549 240.883 284.685 240.883ZM306.303 240.307V242.371C305.519 241.379 304.479 240.883 303.183 240.883C302.207 240.883 301.375 241.219 300.687 241.891C299.999 242.547 299.655 243.451 299.655 244.603C299.655 245.755 299.999 246.659 300.687 247.315C301.375 247.971 302.199 248.299 303.159 248.299C304.439 248.299 305.511 247.779 306.375 246.739V248.803C305.431 249.491 304.375 249.835 303.207 249.835C301.655 249.835 300.375 249.347 299.367 248.371C298.375 247.379 297.879 246.131 297.879 244.627C297.879 243.107 298.383 241.851 299.391 240.859C300.399 239.851 301.671 239.347 303.207 239.347C304.359 239.347 305.391 239.667 306.303 240.307ZM317.193 248.347C316.201 249.339 314.945 249.835 313.425 249.835C311.905 249.835 310.641 249.339 309.633 248.347C308.641 247.355 308.145 246.107 308.145 244.603C308.145 243.083 308.641 241.827 309.633 240.835C310.641 239.843 311.905 239.347 313.425 239.347C314.945 239.347 316.201 239.843 317.193 240.835C318.201 241.827 318.705 243.083 318.705 244.603C318.705 246.107 318.201 247.355 317.193 248.347ZM315.897 241.867C315.225 241.211 314.401 240.883 313.425 240.883C312.449 240.883 311.617 241.219 310.929 241.891C310.257 242.547 309.921 243.451 309.921 244.603C309.921 245.755 310.265 246.659 310.953 247.315C311.641 247.971 312.465 248.299 313.425 248.299C314.385 248.299 315.209 247.971 315.897 247.315C316.585 246.659 316.929 245.755 316.929 244.603C316.929 243.435 316.585 242.523 315.897 241.867ZM329.035 232.747H330.955C330.779 233.339 330.475 233.843 330.043 234.259C329.627 234.659 329.243 234.931 328.891 235.075C328.555 235.219 328.155 235.347 327.691 235.459C327.611 235.475 327.419 235.523 327.115 235.603C326.811 235.667 326.579 235.723 326.419 235.771C326.259 235.819 326.051 235.883 325.795 235.963C325.539 236.043 325.307 236.139 325.099 236.251C324.891 236.363 324.699 236.483 324.523 236.611C323.915 237.075 323.419 237.723 323.035 238.555C322.667 239.371 322.467 240.243 322.435 241.171H322.483C323.203 239.955 324.411 239.347 326.107 239.347C327.595 239.347 328.827 239.851 329.803 240.859C330.795 241.867 331.291 243.115 331.291 244.603C331.291 246.107 330.787 247.355 329.779 248.347C328.771 249.339 327.459 249.835 325.843 249.835C324.451 249.835 323.307 249.419 322.411 248.587C321.291 247.563 320.731 245.851 320.731 243.451C320.731 239.275 321.675 236.539 323.563 235.243C323.707 235.147 323.859 235.059 324.019 234.979C324.179 234.883 324.347 234.803 324.523 234.739C324.715 234.659 324.875 234.595 325.003 234.547C325.131 234.483 325.307 234.427 325.531 234.379C325.771 234.315 325.931 234.275 326.011 234.259C326.107 234.227 326.283 234.187 326.539 234.139C326.811 234.075 326.979 234.035 327.043 234.019C327.683 233.875 328.147 233.707 328.435 233.515C328.723 233.307 328.923 233.051 329.035 232.747ZM328.483 241.867C327.811 241.211 326.987 240.883 326.011 240.883C325.035 240.883 324.203 241.219 323.515 241.891C322.843 242.547 322.507 243.451 322.507 244.603C322.507 245.755 322.851 246.659 323.539 247.315C324.227 247.971 325.051 248.299 326.011 248.299C326.971 248.299 327.795 247.971 328.483 247.315C329.171 246.659 329.515 245.755 329.515 244.603C329.515 243.435 329.171 242.523 328.483 241.867ZM342.365 248.347C341.373 249.339 340.117 249.835 338.597 249.835C337.077 249.835 335.813 249.339 334.805 248.347C333.813 247.355 333.317 246.107 333.317 244.603C333.317 243.083 333.813 241.827 334.805 240.835C335.813 239.843 337.077 239.347 338.597 239.347C340.117 239.347 341.373 239.843 342.365 240.835C343.373 241.827 343.877 243.083 343.877 244.603C343.877 246.107 343.373 247.355 342.365 248.347ZM341.069 241.867C340.397 241.211 339.573 240.883 338.597 240.883C337.621 240.883 336.789 241.219 336.101 241.891C335.429 242.547 335.093 243.451 335.093 244.603C335.093 245.755 335.437 246.659 336.125 247.315C336.813 247.971 337.637 248.299 338.597 248.299C339.557 248.299 340.381 247.971 341.069 247.315C341.757 246.659 342.101 245.755 342.101 244.603C342.101 243.435 341.757 242.523 341.069 241.867ZM346.527 239.587H348.255V246.163L355.071 238.819V249.547H353.343V242.899L346.527 250.243V239.587ZM347.391 235.291L348.831 234.739C349.119 235.699 349.799 236.179 350.871 236.179C351.943 236.179 352.623 235.699 352.911 234.739L354.351 235.291C354.095 236.011 353.655 236.579 353.031 236.995C352.423 237.411 351.703 237.619 350.871 237.619C350.039 237.619 349.311 237.411 348.687 236.995C348.079 236.579 347.647 236.011 347.391 235.291ZM357.283 252.739L359.251 247.195L360.835 247.771L358.411 253.195L357.283 252.739ZM371.823 242.131L370.623 241.147C371.007 240.587 371.431 240.171 371.895 239.899C372.519 239.531 373.247 239.347 374.079 239.347C375.087 239.347 375.871 239.579 376.431 240.043C377.007 240.539 377.295 241.171 377.295 241.939C377.295 242.867 376.919 243.563 376.167 244.027C376.647 244.139 377.031 244.355 377.319 244.675C377.783 245.171 378.015 245.779 378.015 246.499C378.015 247.571 377.583 248.427 376.719 249.067C376.015 249.579 375.071 249.835 373.887 249.835C372.831 249.835 371.943 249.555 371.223 248.995C370.679 248.595 370.239 248.027 369.903 247.291L371.391 246.667C371.567 247.115 371.863 247.491 372.279 247.795C372.727 248.131 373.271 248.299 373.911 248.299C374.663 248.299 375.223 248.171 375.591 247.915C376.055 247.611 376.287 247.147 376.287 246.523C376.287 246.011 376.087 245.627 375.687 245.371C375.351 245.147 374.807 245.035 374.055 245.035H373.047V243.451H373.887C374.495 243.451 374.927 243.363 375.183 243.187C375.535 242.963 375.711 242.659 375.711 242.275C375.711 241.827 375.567 241.483 375.279 241.243C375.007 241.003 374.583 240.883 374.007 240.883C373.511 240.883 373.055 241.011 372.639 241.267C372.287 241.491 372.015 241.779 371.823 242.131ZM388.284 241.003V239.587H390.012V249.547H388.284V248.155C387.42 249.275 386.284 249.835 384.876 249.835C383.532 249.835 382.388 249.371 381.444 248.443C380.5 247.515 380.028 246.219 380.028 244.555C380.028 242.923 380.492 241.651 381.42 240.739C382.364 239.811 383.516 239.347 384.876 239.347C386.316 239.347 387.452 239.899 388.284 241.003ZM385.068 240.883C384.156 240.883 383.38 241.211 382.74 241.867C382.116 242.507 381.804 243.403 381.804 244.555C381.804 245.659 382.092 246.563 382.668 247.267C383.26 247.955 384.06 248.299 385.068 248.299C386.076 248.299 386.876 247.939 387.468 247.219C388.076 246.499 388.38 245.619 388.38 244.579C388.38 243.395 388.044 242.483 387.372 241.843C386.7 241.203 385.932 240.883 385.068 240.883ZM393.285 239.587H401.301V249.547H399.573V241.171H395.013V249.547H393.285V239.587ZM412.982 248.347C411.99 249.339 410.734 249.835 409.214 249.835C407.694 249.835 406.43 249.339 405.422 248.347C404.43 247.355 403.934 246.107 403.934 244.603C403.934 243.083 404.43 241.827 405.422 240.835C406.43 239.843 407.694 239.347 409.214 239.347C410.734 239.347 411.99 239.843 412.982 240.835C413.99 241.827 414.494 243.083 414.494 244.603C414.494 246.107 413.99 247.355 412.982 248.347ZM411.686 241.867C411.014 241.211 410.19 240.883 409.214 240.883C408.238 240.883 407.406 241.219 406.718 241.891C406.046 242.547 405.71 243.451 405.71 244.603C405.71 245.755 406.054 246.659 406.742 247.315C407.43 247.971 408.254 248.299 409.214 248.299C410.174 248.299 410.998 247.971 411.686 247.315C412.374 246.659 412.718 245.755 412.718 244.603C412.718 243.435 412.374 242.523 411.686 241.867ZM424.68 239.587V249.547H422.952V241.171H419.4V245.659C419.4 246.955 419.144 247.915 418.632 248.539C418.056 249.243 417.256 249.595 416.232 249.595C416.104 249.595 415.928 249.579 415.704 249.547V247.963C415.864 247.995 415.992 248.011 416.088 248.011C416.648 248.011 417.064 247.795 417.336 247.363C417.56 247.011 417.672 246.443 417.672 245.659V239.587H424.68ZM427.949 249.547V239.587H429.677V243.667H434.381V239.587H436.109V249.547H434.381V245.251H429.677V249.547H427.949ZM439.363 239.587H441.091V246.163L447.907 238.819V249.547H446.179V242.899L439.363 250.243V239.587ZM451.175 239.587H454.943C455.855 239.587 456.551 239.779 457.031 240.163C457.607 240.627 457.895 241.251 457.895 242.035C457.895 242.899 457.535 243.563 456.815 244.027C457.311 244.155 457.727 244.379 458.063 244.699C458.591 245.211 458.855 245.851 458.855 246.619C458.855 247.579 458.511 248.331 457.823 248.875C457.231 249.323 456.447 249.547 455.471 249.547H451.175V239.587ZM452.903 243.643H454.727C455.191 243.643 455.559 243.547 455.831 243.355C456.151 243.115 456.311 242.771 456.311 242.323C456.311 241.923 456.151 241.603 455.831 241.363C455.591 241.203 455.127 241.123 454.439 241.123H452.903V243.643ZM452.903 248.011H455.039C455.775 248.011 456.295 247.899 456.599 247.675C456.983 247.387 457.175 247.019 457.175 246.571C457.175 246.091 457.007 245.715 456.671 245.443C456.367 245.203 455.847 245.083 455.111 245.083H452.903V248.011ZM472.393 255.067V249.715C470.649 249.715 469.249 249.283 468.193 248.419C467.041 247.491 466.465 246.203 466.465 244.555C466.465 242.923 467.033 241.643 468.169 240.715C469.193 239.851 470.601 239.419 472.393 239.419V233.539H474.121V239.419C475.913 239.419 477.321 239.851 478.345 240.715C479.481 241.643 480.049 242.923 480.049 244.555C480.049 246.203 479.473 247.491 478.321 248.419C477.265 249.283 475.865 249.715 474.121 249.715V255.067H472.393ZM472.393 248.179V240.955C471.257 240.955 470.369 241.163 469.729 241.579C468.737 242.203 468.241 243.195 468.241 244.555C468.241 245.835 468.705 246.803 469.633 247.459C470.305 247.939 471.225 248.179 472.393 248.179ZM474.121 240.955V248.179C475.289 248.179 476.209 247.939 476.881 247.459C477.809 246.803 478.273 245.835 478.273 244.555C478.273 243.195 477.777 242.203 476.785 241.579C476.145 241.163 475.257 240.955 474.121 240.955ZM491.123 248.347C490.131 249.339 488.875 249.835 487.355 249.835C485.835 249.835 484.571 249.339 483.563 248.347C482.571 247.355 482.075 246.107 482.075 244.603C482.075 243.083 482.571 241.827 483.563 240.835C484.571 239.843 485.835 239.347 487.355 239.347C488.875 239.347 490.131 239.843 491.123 240.835C492.131 241.827 492.635 243.083 492.635 244.603C492.635 246.107 492.131 247.355 491.123 248.347ZM489.827 241.867C489.155 241.211 488.331 240.883 487.355 240.883C486.379 240.883 485.547 241.219 484.859 241.891C484.187 242.547 483.851 243.451 483.851 244.603C483.851 245.755 484.195 246.659 484.883 247.315C485.571 247.971 486.395 248.299 487.355 248.299C488.315 248.299 489.139 247.971 489.827 247.315C490.515 246.659 490.859 245.755 490.859 244.603C490.859 243.435 490.515 242.523 489.827 241.867ZM497.013 248.155V255.067H495.285V239.587H497.013V240.979C497.893 239.891 499.029 239.347 500.421 239.347C501.909 239.347 503.085 239.875 503.949 240.931C504.829 241.971 505.269 243.203 505.269 244.627C505.269 246.067 504.837 247.299 503.973 248.323C503.109 249.331 501.949 249.835 500.493 249.835C499.037 249.835 497.877 249.275 497.013 248.155ZM500.253 248.299C501.229 248.299 502.013 247.947 502.605 247.243C503.197 246.523 503.493 245.651 503.493 244.627C503.493 243.475 503.165 242.563 502.509 241.891C501.853 241.219 501.093 240.883 500.229 240.883C499.365 240.883 498.597 241.219 497.925 241.891C497.253 242.563 496.917 243.467 496.917 244.603C496.917 245.643 497.221 246.523 497.829 247.243C498.453 247.947 499.261 248.299 500.253 248.299ZM506.765 249.547L509.165 238.819L513.293 246.931L517.325 238.819L519.725 249.547H517.949L516.629 243.379L513.245 250.243L509.813 243.379L508.541 249.547H506.765ZM521.815 255.067L524.983 248.611L520.399 239.587H522.367L525.895 246.715L529.135 239.587H531.055L523.735 255.067H521.815ZM532.111 249.427C531.871 249.187 531.751 248.907 531.751 248.587C531.751 248.267 531.871 247.987 532.111 247.747C532.351 247.507 532.631 247.387 532.951 247.387C533.271 247.387 533.551 247.507 533.791 247.747C534.031 247.987 534.151 248.267 534.151 248.587C534.151 248.907 534.031 249.187 533.791 249.427C533.551 249.667 533.271 249.787 532.951 249.787C532.631 249.787 532.351 249.667 532.111 249.427Z" fill="#092725"/>
<path d="M323.947 23.4925C323.938 23.468 323.927 23.4461 323.915 23.4229C323.886 23.3643 323.85 23.3111 323.807 23.2619C323.791 23.2444 323.778 23.2262 323.762 23.2102C323.701 23.1531 323.633 23.1028 323.555 23.0677L318.752 20.9336C319.167 20.354 319.445 19.6813 319.493 18.8973C319.607 17.0062 318.357 15.3557 316.383 14.7903C314.849 14.3508 313.121 14.6947 311.388 15.7849C310.855 16.12 310.334 16.5237 309.833 16.9699L306.305 15.4019C306.111 15.3158 305.89 15.3151 305.695 15.4019L302.179 16.9646C300.611 15.5865 298.796 14.6021 296.97 14.6021C296.509 14.6021 296.053 14.6654 295.617 14.7903C293.642 15.3557 292.392 17.0062 292.507 18.8977C292.555 19.6815 292.834 20.3541 293.248 20.9336L288.445 23.0677C288.367 23.1028 288.299 23.153 288.239 23.2101C288.222 23.2261 288.209 23.2445 288.193 23.2621C288.15 23.3112 288.114 23.3643 288.085 23.4228C288.073 23.4461 288.062 23.4679 288.053 23.4925C288.022 23.5752 288 23.6618 288 23.7533V43.6858C288 43.9821 288.175 44.2509 288.445 44.371L305.695 52.0372C305.706 52.0422 305.719 52.0402 305.73 52.0446C305.817 52.0786 305.907 52.1021 306 52.1021C306.093 52.1021 306.183 52.0786 306.27 52.0446C306.281 52.0402 306.294 52.0422 306.305 52.0372L323.555 44.371C323.826 44.2509 324 43.9821 324 43.6858V23.7533C324 23.6617 323.978 23.5752 323.947 23.4925ZM305.25 31.9072V50.1981L297.75 46.8649V28.5741L305.25 31.9072ZM306 30.5986L298.872 27.431L304.799 24.8563C304.811 24.8512 304.818 24.8409 304.829 24.8353C305.093 24.8545 305.359 24.8756 305.621 24.894C305.621 24.894 306.005 24.9182 306.013 24.9182C306.036 24.9182 306.378 24.8944 306.378 24.8944C306.641 24.8759 306.907 24.8548 307.171 24.8355C307.183 24.841 307.19 24.8513 307.201 24.8563L313.128 27.4311L306 30.5986ZM314.988 26.6042L310.246 24.544C311.306 24.4121 312.365 24.2412 313.411 23.9789C314.433 23.7225 316.245 23.1472 317.629 22.0761L321.404 23.7533L314.988 26.6042ZM312.187 17.0546C313.195 16.4199 314.145 16.1013 315.024 16.1013C315.349 16.1013 315.665 16.1449 315.97 16.2324C317.037 16.5378 318.078 17.4523 317.996 18.8062C317.882 20.6606 315.365 21.9427 313.046 22.5243C311.095 23.0135 309.042 23.1978 307.031 23.3439C307.773 21.4396 309.763 18.5802 312.187 17.0546ZM306 16.9077L308.686 18.1016C307.569 19.3221 306.625 20.7083 306.006 21.9664C305.399 20.7096 304.468 19.3221 303.336 18.0918L306 16.9077ZM296.03 16.2324C296.332 16.146 296.648 16.1021 296.97 16.1021C300.205 16.1021 303.896 20.5229 304.975 23.3446C302.963 23.1981 300.907 23.0143 298.954 22.5243C296.636 21.9427 294.118 20.6606 294.004 18.8065C293.922 17.4526 294.962 16.5378 296.03 16.2324ZM294.371 22.0761C295.755 23.1472 297.567 23.7225 298.589 23.9789C299.635 24.2412 300.694 24.4122 301.754 24.544L297.012 26.6041L290.597 23.7533L294.371 22.0761ZM289.5 24.9075L296.25 27.9074V46.1983L289.5 43.1984V24.9075ZM306.75 31.9072L314.25 28.5741V46.8649L306.75 50.1981V31.9072ZM315.75 46.1983V27.9074L322.5 24.9075V43.1984L315.75 46.1983Z" fill="black"/>
</svg>
